,k=2,4,6,8,10,12,14,16,18,20,22,24,26,28,30,32,34,36,38,40,42,44,46,48,50,52,54,56,58,60,62,64,66,68,,suggested limit,
N=1,0,0,0,0,0,0,0,0,0,0,0,2,0,2,2,2,2,2,2,2,2,2,2,2,2,2,2,2,2,2,2,2,2,2,,2,
N=2,0,0,0,0,0,0,2,0,0,2,2,0,3,2,2,3,3,2,3,3,3,3,3,3,3,3,3,3,3,3,3,3,3,3,,3,
3,0,0,0,0,2,0,2,2,2,2,2,2,2,2,2,2,2,2,2,2,2,2,2,2,2,2,2,2,2,2,2,2,2,2,,2,
4,0,0,0,0,0,0,0,0,3,0,3,3,3,3,3,3,3,3,3,3,3,3,3,3,3,3,3,3,3,3,3,3,3,3,,3,
5,0,0,0,2,2,2,2,2,2,2,2,2,2,2,2,2,2,2,2,2,2,2,2,2,2,2,2,2,,,,,,,,2,
6,0,0,0,0,0,3,0,3,3,3,3,5,3,5,5,5,5,5,5,5,5,5,5,5,5,5,5,5,,,,,,,,5,
7,0,0,2,2,2,2,2,2,2,2,2,2,2,2,2,2,2,2,2,2,2,,,,,,,,,,,,,,,2,
8,0,0,0,3,3,3,3,3,3,3,3,3,3,3,3,3,3,3,3,3,3,,,,,,,,,,,,,,,3,
9,0,0,0,2,2,2,2,2,2,2,2,2,2,2,2,2,2,2,2,2,2,,,,,,,,,,,,,,,2,
10,0,0,3,0,3,3,3,3,3,3,3,3,3,3,3,3,3,3,3,3,3,,,,,,,,,,,,,,,3,
11,0,2,2,2,2,2,2,2,2,2,2,2,2,2,2,2,2,2,2,2,2,,,,,,,,,,,,,,,2,
12,0,0,0,3,0,3,3,5,3,5,5,5,5,5,5,5,5,5,5,5,5,,,,,,,,,,,,,,,5,
13,0,2,2,2,2,2,2,2,2,2,2,2,2,2,2,2,2,,,,,,,,,,,,,,,,,,,2,
14,0,2,2,3,3,3,3,3,3,3,3,3,3,3,3,3,3,,,,,,,,,,,,,,,,,,,3,
15,0,2,2,2,2,2,2,2,2,2,2,2,2,2,2,2,2,,,,,,,,,,,,,,,,,,,2,
16,0,0,3,3,3,3,3,3,3,3,3,3,3,3,3,3,3,,,,,,,,,,,,,,,,,,,3,
17,0,2,2,2,2,2,2,2,2,2,2,2,2,2,2,2,2,,,,,,,,,,,,,,,,,,,2,
18,0,0,5,2,5,5,5,5,5,5,5,5,5,5,5,5,5,,,,,,,,,,,,,,,,,,,5,
19,0,2,2,2,2,2,2,2,2,2,2,2,2,2,2,,,,,,,,,,,,,,,,,,,,,2,
20,0,0,0,3,3,3,3,3,3,3,3,3,3,3,3,,,,,,,,,,,,,,,,,,,,,3,
21,0,2,2,2,2,2,2,2,2,2,2,2,2,2,2,,,,,,,,,,,,,,,,,,,,,2,
22,0,3,3,3,3,3,3,3,3,3,3,3,3,3,3,,,,,,,,,,,,,,,,,,,,,3,
23,2,2,2,2,2,2,2,2,2,2,2,2,2,2,2,,,,,,,,,,,,,,,,,,,,,2,
24,0,0,5,5,5,5,5,5,5,5,5,5,5,5,5,,,,,,,,,,,,,,,,,,,,,5,
25,0,2,2,2,2,2,2,2,2,2,2,2,2,2,2,,,,,,,,,,,,,,,,,,,,,2,
26,2,3,3,3,3,3,3,3,3,3,3,3,3,3,3,,,,,,,,,,,,,,,,,,,,,3,
27,0,2,2,2,2,2,2,2,2,2,2,2,2,2,2,,,,,,,,,,,,,,,,,,,,,2,
28,0,3,3,3,3,3,3,3,3,3,3,3,3,3,3,,,,,,,,,,,,,,,,,,,,,3,
29,2,2,2,2,2,2,2,2,2,2,2,2,2,2,2,,,,,,,,,,,,,,,,,,,,,2,
30,0,2,2,5,5,5,7,7,7,7,7,7,7,7,7,7,7,,,,,,,,,,,,,,,,,,,7,
31,2,2,2,2,2,2,2,2,2,2,2,2,2,2,,,,,,,,,,,,,,,,,,,,,,2,
32,0,3,3,3,3,3,3,3,3,3,3,3,3,3,,,,,,,,,,,,,,,,,,,,,,3,
33,0,2,2,2,2,2,2,2,2,2,2,2,2,2,,,,,,,,,,,,,,,,,,,,,,2,
34,0,5,3,3,3,3,3,3,3,3,3,3,3,3,,,,,,,,,,,,,,,,,,,,,,3,
35,2,2,2,2,2,2,2,2,2,2,2,2,2,2,,,,,,,,,,,,,,,,,,,,,,2,
36,0,0,5,5,5,5,5,5,5,5,5,5,5,5,,,,,,,,,,,,,,,,,,,,,,5,
37,2,2,2,2,2,2,2,2,2,2,2,2,2,2,,,,,,,,,,,,,,,,,,,,,,2,
38,2,3,3,3,3,3,3,3,3,3,3,3,3,,,,,,,,,,,,,,,,,,,,,,,3,
39,2,2,2,2,2,2,2,2,2,2,2,2,2,,,,,,,,,,,,,,,,,,,,,,,2,
40,0,3,3,3,3,7,3,3,3,3,3,3,3,3,3,,,,,,,,,,,,,,,,,,,,,3,
41,2,2,2,2,2,2,2,2,2,2,2,2,2,,,,,,,,,,,,,,,,,,,,,,,2,
42,0,3,5,5,5,5,5,5,5,5,5,5,5,5,,,,,,,,,,,,,,,,,,,,,,5,
43,2,2,2,2,2,2,2,2,2,2,2,2,,,,,,,,,,,,,,,,,,,,,,,,2,
44,0,3,3,3,3,3,3,3,3,3,3,3,3,,,,,,,,,,,,,,,,,,,,,,,3,
45,0,2,2,2,2,2,2,2,2,2,2,2,2,,,,,,,,,,,,,,,,,,,,,,,2,
46,0,3,3,3,3,3,3,3,3,3,3,3,3,,,,,,,,,,,,,,,,,,,,,,,3,
47,2,2,2,2,2,2,2,2,2,2,2,2,,,,,,,,,,,,,,,,,,,,,,,,2,
48,0,5,5,5,5,5,5,5,5,5,5,5,5,,,,,,,,,,,,,,,,,,,,,,,5,
49,0,3,3,3,3,3,3,3,3,3,3,3,3,3,,,,,,,,,,,,,,,,,,,,,,,3
50,2,3,3,3,3,3,3,3,3,3,3,3,3,,,,,,,,,,,,,,,,,,,,,,,3,
51,2,3,2,2,2,2,2,2,2,2,2,2,,2,,,,,,,,,,,,,,,,,,,,,,2,
52,0,3,3,3,3,3,3,3,3,3,3,3,3,,,,,,,,,,,,,,,,,,,,,,,3,
53,2,2,2,2,2,2,2,2,2,2,2,2,2,,,,,,,,,,,,,,,,,,,,,,,5,
54,2,5,5,5,5,5,5,5,5,5,5,5,5,,,,,,,,,,,,,,,,,,,,,,,5,
55,2,2,2,2,2,2,2,2,2,2,2,2,,,,,,,,,,,,,,,,,,,,,,,,2,
56,3,3,3,3,3,3,3,3,3,3,3,3,,,,,,,,,,,,,,,,,,,,,,,,3,
57,3,2,2,2,2,2,2,2,2,2,2,2,2,,,,,,,,,,,,,,,,,,,,,,,2,
58,2,3,3,3,3,3,3,3,3,3,3,3,3,,,,,,,,,,,,,,,,,,,,,,,3,
59,2,2,2,2,2,2,2,2,2,2,2,2,,,,,,,,,,,,,,,,,,,,,,,,2,
60,0,5,5,5,7,7,7,7,7,7,7,7,7,7,,,,,,,,,,,,,,,,,,,,,,7,
61,2,2,2,2,2,2,2,2,2,2,2,2,,,,,,,,,,,,,,,,,,,,,,,,2,
62,3,3,3,3,3,3,3,3,3,3,3,3,,,,,,,,,,,,,,,,,,,,,,,,3,
63,2,2,2,2,2,2,2,2,2,2,2,2,,,,,,,,,,,,,,,,,,,,,,,,2,
64,0,3,3,3,3,3,3,3,3,3,3,3,,,,,,,,,,,,,,,,,,,,,,,,3,
65,2,2,2,2,2,2,2,2,2,2,2,2,,,,,,,,,,,,,,,,,,,,,,,,2,
66,3,5,7,5,5,5,5,5,5,5,5,5,,,,,,,,,,,,,,,,,,,,,,,,5,
67,2,2,2,2,2,2,2,2,2,2,2,2,,,,,,,,,,,,,,,,,,,,,,,,2,
68,3,3,3,3,3,3,3,3,3,3,3,3,,,,,,,,,,,,,,,,,,,,,,,,3,
69,2,2,2,2,2,2,2,2,2,2,2,2,,,,,,,,,,,,,,,,,,,,,,,,2,
70,0,3,3,3,3,3,3,3,3,3,3,3,3,,,,,,,,,,,,,,,,,,,,,,,3,
71,2,2,2,2,2,2,2,2,2,2,2,2,,,,,,,,,,,,,,,,,,,,,,,,2,
72,0,5,5,5,5,5,5,5,5,5,5,5,5,,,,,,,,,,,,,,,,,,,,,,,5,
73,2,2,2,2,2,2,2,2,2,2,2,2,,,,,,,,,,,,,,,,,,,,,,,,2,
74,3,3,3,3,3,3,3,3,3,3,3,,,,,,,,,,,,,,,,,,,,,,,,,3,
75,2,2,2,2,2,2,2,2,2,2,2,,,,,,,,,,,,,,,,,,,,,,,,,2,
76,0,3,3,3,3,3,3,3,3,3,,,,,,,,,,,,,,,,,,,,,,,,,,3,
77,3,2,2,2,2,2,2,2,2,2,2,2,,,,,,,,,,,,,,,,,,,,,,,,2,
78,0,5,5,5,5,5,5,5,5,5,,5,,,,,,,,,,,,,,,,,,,,,,,,5,
79,2,2,2,2,2,2,2,2,2,2,2,2,,,,,,,,,,,,,,,,,,,,,,,,2,
80,3,7,3,3,3,7,3,3,3,3,,3,,,,,,,,,,,,,,,,,,,,,,,,3,
81,2,2,2,2,2,2,2,2,2,2,2,2,,,,,,,,,,,,,,,,,,,,,,,,2,
82,3,3,3,3,3,3,3,3,3,3,,,,,,,,,,,,,,,,,,,,,,,,,,3,
83,2,2,2,2,2,2,2,2,2,2,2,2,,,,,,,,,,,,,,,,,,,,,,,,2,
84,3,3,5,5,5,5,5,5,5,5,,5,,,,,,,,,,,,,,,,,,,,,,,,5,
85,2,3,2,2,2,2,2,2,2,2,,2,,,,,,,,,,,,,,,,,,,,,,,,2,
86,3,3,3,3,3,3,3,3,3,3,,,,,,,,,,,,,,,,,,,,,,,,,,3,
87,2,2,2,2,2,2,2,2,2,2,,2,,,,,,,,,,,,,,,,,,,,,,,,2,
88,3,3,3,3,3,3,3,3,,3,,,,,,,,,,,,,,,,,,,,,,,,,,3,
89,2,2,2,2,2,2,2,2,2,2,2,2,,,,,,,,,,,,,,,,,,,,,,,,2,
90,5,7,7,7,7,7,7,7,,7,,,,,,,,,,,,,,,,,,,,,,,,,,7,
91,2,2,2,2,2,2,2,2,2,,,2,,,,,,,,,,,,,,,,,,,,,,,,2,
92,3,3,3,3,3,3,3,3,,,,,,,,,,,,,,,,,,,,,,,,,,,,3,
93,2,2,2,2,2,2,2,2,2,,,2,,,,,,,,,,,,,,,,,,,,,,,,2,
94,3,3,3,3,3,3,3,3,,,,,,,,,,,,,,,,,,,,,,,,,,,,3,
95,2,3,2,2,2,2,2,2,2,,,,,,,,,,,,,,,,,,,,,,,,,,,2,
96,3,5,5,5,5,5,5,5,,,,,,,,,,,,,,,,,,,,,,,,,,,,5,
97,2,2,2,2,2,2,2,2,2,,,,,,,,,,,,,,,,,,,,,,,,,,,2,
98,3,3,3,3,3,3,3,3,3,,,,,,,,,,,,,,,,,,,,,,,,,,,3,
99,5,2,2,2,2,2,2,2,2,,,,,,,,,,,,,,,,,,,,,,,,,,,2,
100,0,3,3,3,3,3,3,3,3,,,,,,,,,,,,,,,,,,,,,,,,,,,3,
101,2,2,2,2,2,2,2,,,,,,,,,,,,,,,,,,,,,,,,,,,,,2,
102,3,5,5,5,5,5,5,5,,,,,,,,,,,,,,,,,,,,,,,,,,,,5,
103,2,2,2,2,2,2,2,,,,,,,,,,,,,,,,,,,,,,,,,,,,,2,
104,3,3,3,3,3,3,3,3,,,,,,,,,,,,,,,,,,,,,,,,,,,,3,
105,2,2,2,2,2,2,2,,,,,,,,,,,,,,,,,,,,,,,,,,,,,2,
106,3,3,3,3,3,3,3,,,,,,,,,,,,,,,,,,,,,,,,,,,,,3,
107,2,2,2,2,2,2,2,,,,,,,,,,,,,,,,,,,,,,,,,,,,,2,
108,0,7,7,5,7,5,5,7,5,5,7,5,,,,,,,,,,,,,,,,,,,,,,,,,5
109,2,2,2,2,2,2,2,,,,,,,,,,,,,,,,,,,,,,,,,,,,,2,
110,3,5,3,3,3,3,3,,,,,,,,,,,,,,,,,,,,,,,,,,,,,3,
111,2,2,2,2,2,2,2,,,,,,,,,,,,,,,,,,,,,,,,,,,,,2,
112,3,5,3,3,3,3,3,,,,,,,,,,,,,,,,,,,,,,,,,,,,,3,
113,3,2,2,2,2,2,2,,,,,,,,,,,,,,,,,,,,,,,,,,,,,2,
114,3,5,5,5,5,5,5,,,,,,,,,,,,,,,,,,,,,,,,,,,,,5,
115,2,3,3,2,2,2,2,,,,,,,,,,,,,,,,,,,,,,,,,,,,,2,
116,3,3,3,3,3,3,3,,,,,,,,,,,,,,,,,,,,,,,,,,,,,3,
117,2,2,2,2,2,2,2,,,,,,,,,,,,,,,,,,,,,,,,,,,,,2,
118,3,3,3,3,3,3,3,,,,,,,,,,,,,,,,,,,,,,,,,,,,,3,
119,2,2,2,2,2,2,,,,,,,,,,,,,,,,,,,,,,,,,,,,,,2,
120,5,7,7,7,7,7,7,,,,,,,,,,,,,,,,,,,,,,,,,,,,,7,
121,2,2,2,2,2,2,,,,,,,,,,,,,,,,,,,,,,,,,,,,,,2,
122,3,3,3,3,3,,,,,,,,,,,,,,,,,,,,,,,,,,,,,,,3,
123,2,2,2,2,2,2,,,,,,,,,,,,,,,,,,,,,,,,,,,,,,2,
124,3,3,3,3,3,3,,,,,,,,,,,,,,,,,,,,,,,,,,,,,,3,
125,2,2,2,2,2,2,,,,,,,,,,,,,,,,,,,,,,,,,,,,,,2,
126,2,5,11,5,5,5,,,,,,,,,,,,,,,,,,,,,,,,,,,,,,5,
127,2,2,2,2,2,2,,,,,,,,,,,,,,,,,,,,,,,,,,,,,,2,
128,5,5,5,5,5,5,,,,,,,,,,,,,,,,,,,,,,,,,,,,,,3,
129,2,2,2,2,2,2,,,,,,,,,,,,,,,,,,,,,,,,,,,,,,2,
130,3,3,3,3,3,3,,,,,,,,,,,,,,,,,,,,,,,,,,,,,,3,
131,2,2,2,2,2,2,,,,,,,,,,,,,,,,,,,,,,,,,,,,,,2,
132,3,5,5,5,5,5,,,,,,,,,,,,,,,,,,,,,,,,,,,,,,5,
133,2,2,2,2,2,2,,,,,,,,,,,,,,,,,,,,,,,,,,,,,,2,
134,3,3,3,3,3,3,,,,,,,,,,,,,,,,,,,,,,,,,,,,,,3,
135,2,2,2,2,2,2,,,,,,,,,,,,,,,,,,,,,,,,,,,,,,2,
136,3,3,3,3,3,3,,,,,,,,,,,,,,,,,,,,,,,,,,,,,,3,
137,2,2,2,2,2,2,,,,,,,,,,,,,,,,,,,,,,,,,,,,,,2,
138,5,5,5,5,5,,,,,,,,,,,,,,,,,,,,,,,,,,,,,,,5,
139,2,2,2,2,2,2,,,,,,,,,,,,,,,,,,,,,,,,,,,,,,2,
140,3,5,3,3,3,,,,,,,,,,,,,,,,,,,,,,,,,,,,,,,3,
141,3,5,2,2,2,2,,,,,,,,,,,,,,,,,,,,,,,,,,,,,,2,
142,3,3,3,3,3,,,,,,,,,,,,,,,,,,,,,,,,,,,,,,,3,
143,2,2,2,2,2,2,,,,,,,,,,,,,,,,,,,,,,,,,,,,,,2,
144,5,5,5,5,5,,,,,,,,,,,,,,,,,,,,,,,,,,,,,,,5,
145,2,2,2,2,2,2,,,,,,,,,,,,,,,,,,,,,,,,,,,,,,2,
146,3,3,3,3,3,,,,,,,,,,,,,,,,,,,,,,,,,,,,,,,3,
147,3,5,3,3,3,3,,,,,,,,,,,,,,,,,,,,,,,,,,,,,,,3
148,3,3,3,3,3,,,,,,,,,,,,,,,,,,,,,,,,,,,,,,,3,
149,2,2,2,2,2,2,,,,,,,,,,,,,,,,,,,,,,,,,,,,,,2,
150,3,7,7,7,7,,,,,,,,,,,,,,,,,,,,,,,,,,,,,,,7,
151,2,2,2,2,2,2,,,,,,,,,,,,,,,,,,,,,,,,,,,,,,2,
152,3,3,3,3,3,,,,,,,,,,,,,,,,,,,,,,,,,,,,,,,3,
153,2,5,2,2,2,2,,,,,,,,,,,,,,,,,,,,,,,,,,,,,,2,
154,3,3,3,3,3,,,,,,,,,,,,,,,,,,,,,,,,,,,,,,,3,
155,2,2,2,2,2,2,,,,,,,,,,,,,,,,,,,,,,,,,,,,,,2,
156,3,5,5,5,5,,,,,,,,,,,,,,,,,,,,,,,,,,,,,,,5,
157,2,2,2,2,2,2,,,,,,,,,,,,,,,,,,,,,,,,,,,,,,2,
158,3,5,3,3,3,,,,,,,,,,,,,,,,,,,,,,,,,,,,,,,3,
159,2,3,2,2,2,2,,,,,,,,,,,,,,,,,,,,,,,,,,,,,,2,
160,3,3,3,3,3,,,,,,,,,,,,,,,,,,,,,,,,,,,,,,,3,
161,2,2,2,2,2,2,,,,,,,,,,,,,,,,,,,,,,,,,,,,,,2,
162,5,5,5,5,5,,,,,,,,,,,,,,,,,,,,,,,,,,,,,,,5,
163,2,2,2,2,2,2,,,,,,,,,,,,,,,,,,,,,,,,,,,,,,2,
164,3,3,3,3,3,,,,,,,,,,,,,,,,,,,,,,,,,,,,,,,3,
165,2,2,2,2,2,2,,,,,,,,,,,,,,,,,,,,,,,,,,,,,,2,
166,3,3,3,3,,,,,,,,,,,,,,,,,,,,,,,,,,,,,,,,3,
167,2,2,2,2,2,2,,,,,,,,,,,,,,,,,,,,,,,,,,,,,,2,
168,3,5,5,5,,,,,,,,,,,,,,,,,,,,,,,,,,,,,,,,5,
169,2,2,2,2,2,2,,,,,,,,,,,,,,,,,,,,,,,,,,,,,,2,
170,5,3,3,3,,,,,,,,,,,,,,,,,,,,,,,,,,,,,,,,3,
171,5,5,5,2,2,2,,,,,,,,,,,,,,,,,,,,,,,,,,,,,,2,
172,3,3,3,3,,,,,,,,,,,,,,,,,,,,,,,,,,,,,,,,3,
173,2,2,2,2,2,2,,,,,,,,,,,,,,,,,,,,,,,,,,,,,,2,
174,5,5,5,5,,,,,,,,,,,,,,,,,,,,,,,,,,,,,,,,5,
175,2,2,2,2,2,2,,,,,,,,,,,,,,,,,,,,,,,,,,,,,,2,
176,3,3,3,3,,,,,,,,,,,,,,,,,,,,,,,,,,,,,,,,3,
177,2,2,2,2,2,2,,,,,,,,,,,,,,,,,,,,,,,,,,,,,,2,
178,3,3,3,3,,,,,,,,,,,,,,,,,,,,,,,,,,,,,,,,3,
179,2,2,2,2,2,2,,,,,,,,,,,,,,,,,,,,,,,,,,,,,,2,
180,0,7,7,7,,,,,,,,,,,,,,,,,,,,,,,,,,,,,,,,7,
181,2,2,2,2,2,,,,,,,,,,,,,,,,,,,,,,,,,,,,,,,2,
182,3,5,3,3,3,,,,,,,,,,,,,,,,,,,,,,,,,,,,,,,3,
183,2,2,2,2,2,,,,,,,,,,,,,,,,,,,,,,,,,,,,,,,2,
184,5,3,3,3,,,,,,,,,,,,,,,,,,,,,,,,,,,,,,,,3,
185,2,2,2,2,2,,,,,,,,,,,,,,,,,,,,,,,,,,,,,,,2,
186,5,7,5,5,5,,,,,,,,,,,,,,,,,,,,,,,,,,,,,,,5,
187,3,3,2,2,2,,,,,,,,,,,,,,,,,,,,,,,,,,,,,,,2,
188,3,3,3,3,,,,,,,,,,,,,,,,,,,,,,,,,,,,,,,,3,
189,5,5,2,2,2,,,,,,,,,,,,,,,,,,,,,,,,,,,,,,,2,
190,3,3,3,3,,,,,,,,,,,,,,,,,,,,,,,,,,,,,,,,3,
191,2,2,2,2,2,,,,,,,,,,,,,,,,,,,,,,,,,,,,,,,2,
192,5,5,5,5,,,,,,,,,,,,,,,,,,,,,,,,,,,,,,,,5,
193,2,2,2,2,2,,,,,,,,,,,,,,,,,,,,,,,,,,,,,,,2,
194,3,3,3,3,,,,,,,,,,,,,,,,,,,,,,,,,,,,,,,,3,
195,5,3,2,2,2,,,,,,,,,,,,,,,,,,,,,,,,,,,,,,,2,
196,3,5,3,3,,,,,,,,,,,,,,,,,,,,,,,,,,,,,,,,3,
197,2,2,2,2,2,,,,,,,,,,,,,,,,,,,,,,,,,,,,,,,2,
198,11,5,7,5,,,,,,,,,,,,,,,,,,,,,,,,,,,,,,,,5,
199,2,2,2,2,2,,,,,,,,,,,,,,,,,,,,,,,,,,,,,,,2,
200,3,3,3,,,,,,,,,,,,,,,,,,,,,,,,,,,,,,,,,3,
201,2,2,2,2,2,,,,,,,,,,,,,,,,,,,,,,,,,,,,,,,2,
202,3,3,3,,,,,,,,,,,,,,,,,,,,,,,,,,,,,,,,,3,
203,3,2,2,2,2,,,,,,,,,,,,,,,,,,,,,,,,,,,,,,,2,
204,3,5,5,,,,,,,,,,,,,,,,,,,,,,,,,,,,,,,,,5,
205,3,2,2,2,2,,,,,,,,,,,,,,,,,,,,,,,,,,,,,,,2,
206,3,5,3,,,,,,,,,,,,,,,,,,,,,,,,,,,,,,,,,3,
207,2,2,2,2,2,,,,,,,,,,,,,,,,,,,,,,,,,,,,,,,2,
208,5,3,3, ,,,,,,,,,,,,,,,,,,,,,,,,,,,,,,,,3,
209,2,2,2,2,2,,,,,,,,,,,,,,,,,,,,,,,,,,,,,,,2,
210,5,11,11,,,,,,,,,,,,,,,,,,,,,,,,,,,,,,,,,11,
211,2,2,2,2,2,,,,,,,,,,,,,,,,,,,,,,,,,,,,,,,2,
212,3,3,3,,,,,,,,,,,,,,,,,,,,,,,,,,,,,,,,,3,
213,2,2,2,2,2,,,,,,,,,,,,,,,,,,,,,,,,,,,,,,,2,
214,3,3,3,,,,,,,,,,,,,,,,,,,,,,,,,,,,,,,,,3,
215,2,2,2,2,2,,,,,,,,,,,,,,,,,,,,,,,,,,,,,,,2,
216,5,5,5,,,,,,,,,,,,,,,,,,,,,,,,,,,,,,,,,5,
217,3,2,2,2,2,,,,,,,,,,,,,,,,,,,,,,,,,,,,,,,2,
218,3,3,3,,,,,,,,,,,,,,,,,,,,,,,,,,,,,,,,,3,
219,2,2,2,2,2,,,,,,,,,,,,,,,,,,,,,,,,,,,,,,,2,
220,3,3,3,,,,,,,,,,,,,,,,,,,,,,,,,,,,,,,,,3,
221,2,2,2,2,2,,,,,,,,,,,,,,,,,,,,,,,,,,,,,,,2,
222,5,5,5,,,,,,,,,,,,,,,,,,,,,,,,,,,,,,,,,5,
223,2,2,2,2,2,,,,,,,,,,,,,,,,,,,,,,,,,,,,,,,2,
224,3,3,3,,,,,,,,,,,,,,,,,,,,,,,,,,,,,,,,,3,
225,7,7,7,7,7,7,,,,,,,,,,,,,,,,,,,,,,,,,,,,,,,7
226,3,3,3,,,,,,,,,,,,,,,,,,,,,,,,,,,,,,,,,3,
227,3,2,2,2,2,,,,,,,,,,,,,,,,,,,,,,,,,,,,,,,2,
228,5,5,5,,,,,,,,,,,,,,,,,,,,,,,,,,,,,,,,,5,
229,2,2,2,2,2,,,,,,,,,,,,,,,,,,,,,,,,,,,,,,,2,
230,3,3,3,,,,,,,,,,,,,,,,,,,,,,,,,,,,,,,,,3,
231,2,5,2,2,,,,,,,,,,,,,,,,,,,,,,,,,,,,,,,,2,
232,3,3,,,,,,,,,,,,,,,,,,,,,,,,,,,,,,,,,,,
233,2,2,2,2,,,,,,,,,,,,,,,,,,,,,,,,,,,,,,,,,
234,5,7,,,,,,,,,,,,,,,,,,,,,,,,,,,,,,,,,,,
235,5,2,2,2,,,,,,,,,,,,,,,,,,,,,,,,,,,,,,,,,
236,3,3,,,,,,,,,,,,,,,,,,,,,,,,,,,,,,,,,,,
237,2,2,2,,,,,,,,,,,,,,,,,,,,,,,,,,,,,,,,,,
238,3,3,,,,,,,,,,,,,,,,,,,,,,,,,,,,,,,,,,,
239,2,2,2,,,,,,,,,,,,,,,,,,,,,,,,,,,,,,,,,,
240,7,11,,,,,,,,,,,,,,,,,,,,,,,,,,,,,,,,,,,
241,2,2,2,,,,,,,,,,,,,,,,,,,,,,,,,,,,,,,,,,
242,3,5,,,,,,,,,,,,,,,,,,,,,,,,,,,,,,,,,,,
243,7,7,7,7,,,,,,,,,,,,,,,,,,,,,,,,,,,,,,,,,7?
244,3,3,,,,,,,,,,,,,,,,,,,,,,,,,,,,,,,,,,,
245,3,3,3,,,,,,,,,,,,,,,,,,,,,,,,,,,,,,,,,,3?
246,5,5,,,,,,,,,,,,,,,,,,,,,,,,,,,,,,,,,,,
247,2,2,2,,,,,,,,,,,,,,,,,,,,,,,,,,,,,,,,,,
248,5,3,,,,,,,,,,,,,,,,,,,,,,,,,,,,,,,,,,,
249,2,2,2,,,,,,,,,,,,,,,,,,,,,,,,,,,,,,,,,,
250,3,3,,,,,,,,,,,,,,,,,,,,,,,,,,,,,,,,,,,
251,3,2,2,2,,,,,,,,,,,,,,,,,,,,,,,,,,,,,,,,,
252,5,11,,,,,,,,,,,,,,,,,,,,,,,,,,,,,,,,,,,
253,2,2,,,,,,,,,,,,,,,,,,,,,,,,,,,,,,,,,,,
254,5,3,,,,,,,,,,,,,,,,,,,,,,,,,,,,,,,,,,,
255,2,2,,,,,,,,,,,,,,,,,,,,,,,,,,,,,,,,,,,
256,5,5,,,,,,,,,,,,,,,,,,,,,,,,,,,,,,,,,,,
257,2,2,2,,,,,,,,,,,,,,,,,,,,,,,,,,,,,,,,,,
258,5,5,,,,,,,,,,,,,,,,,,,,,,,,,,,,,,,,,,,
259,3,2,,,,,,,,,,,,,,,,,,,,,,,,,,,,,,,,,,,
260,3,3,,,,,,,,,,,,,,,,,,,,,,,,,,,,,,,,,,,
261,5,2,,,,,,,,,,,,,,,,,,,,,,,,,,,,,,,,,,,
262,3,3,,,,,,,,,,,,,,,,,,,,,,,,,,,,,,,,,,,
263,2,2,2,,,,,,,,,,,,,,,,,,,,,,,,,,,,,,,,,,
264,5,7,,,,,,,,,,,,,,,,,,,,,,,,,,,,,,,,,,,
265,3,2,,,,,,,,,,,,,,,,,,,,,,,,,,,,,,,,,,,
266,3,3,,,,,,,,,,,,,,,,,,,,,,,,,,,,,,,,,,,
267,3,2,,,,,,,,,,,,,,,,,,,,,,,,,,,,,,,,,,,
268,3,3,,,,,,,,,,,,,,,,,,,,,,,,,,,,,,,,,,,
269,2,3,2,2,2,,,,,,,,,,,,,,,,,,,,,,,,,,,,,,,,
270,5,7,,,,,,,,,,,,,,,,,,,,,,,,,,,,,,,,,,,
271,2,2,2,,,,,,,,,,,,,,,,,,,,,,,,,,,,,,,,,,
272,5,5,,,,,,,,,,,,,,,,,,,,,,,,,,,,,,,,,,,
273,2,5,,,,,,,,,,,,,,,,,,,,,,,,,,,,,,,,,,,
274,5,3,,,,,,,,,,,,,,,,,,,,,,,,,,,,,,,,,,,
275,2,2,,,,,,,,,,,,,,,,,,,,,,,,,,,,,,,,,,,
276,5,5,,,,,,,,,,,,,,,,,,,,,,,,,,,,,,,,,,,
277,2,2,2,,,,,,,,,,,,,,,,,,,,,,,,,,,,,,,,,,
278,3,3,,,,,,,,,,,,,,,,,,,,,,,,,,,,,,,,,,,
279,2,2,,,,,,,,,,,,,,,,,,,,,,,,,,,,,,,,,,,
280,3,3,,,,,,,,,,,,,,,,,,,,,,,,,,,,,,,,,,,
281,2,2,2,,,,,,,,,,,,,,,,,,,,,,,,,,,,,,,,,,
282,5,5,,,,,,,,,,,,,,,,,,,,,,,,,,,,,,,,,,,
283,2,2,2,,,,,,,,,,,,,,,,,,,,,,,,,,,,,,,,,,
284,3,3,,,,,,,,,,,,,,,,,,,,,,,,,,,,,,,,,,,
285,5,2,,,,,,,,,,,,,,,,,,,,,,,,,,,,,,,,,,,
286,5,3,,,,,,,,,,,,,,,,,,,,,,,,,,,,,,,,,,,
287,3,2,,,,,,,,,,,,,,,,,,,,,,,,,,,,,,,,,,,
288,7,7,,,,,,,,,,,,,,,,,,,,,,,,,,,,,,,,,,,
289,3,3,,,,,,,,,,,,,,,,,,,,,,,,,,,,,,,,,,,
290,5,3,,,,,,,,,,,,,,,,,,,,,,,,,,,,,,,,,,,
291,5,2,,,,,,,,,,,,,,,,,,,,,,,,,,,,,,,,,,,
292,3,3,,,,,,,,,,,,,,,,,,,,,,,,,,,,,,,,,,,
293,2,2,2,,,,,,,,,,,,,,,,,,,,,,,,,,,,,,,,,,
294,5,11,,,,,,,,,,,,,,,,,,,,,,,,,,,,,,,,,,,
295,2,2,,,,,,,,,,,,,,,,,,,,,,,,,,,,,,,,,,,
296,5,3,,,,,,,,,,,,,,,,,,,,,,,,,,,,,,,,,,,
297,2,5,,,,,,,,,,,,,,,,,,,,,,,,,,,,,,,,,,,
298,3,3,,,,,,,,,,,,,,,,,,,,,,,,,,,,,,,,,,,
299,3,2,,,,,,,,,,,,,,,,,,,,,,,,,,,,,,,,,,,
300,7,7,,,,,,,,,,,,,,,,,,,,,,,,,,,,,,,,,,,
301,2,2,,,,,,,,,,,,,,,,,,,,,,,,,,,,,,,,,,,
302,3,3,,,,,,,,,,,,,,,,,,,,,,,,,,,,,,,,,,,
303,2,2,,,,,,,,,,,,,,,,,,,,,,,,,,,,,,,,,,,
304,7,3,,,,,,,,,,,,,,,,,,,,,,,,,,,,,,,,,,,
305,2,2,,,,,,,,,,,,,,,,,,,,,,,,,,,,,,,,,,,
306,5,5,,,,,,,,,,,,,,,,,,,,,,,,,,,,,,,,,,,
307,3,2,2,2,,,,,,,,,,,,,,,,,,,,,,,,,,,,,,,,,
308,3,3,,,,,,,,,,,,,,,,,,,,,,,,,,,,,,,,,,,
309,2,2,,,,,,,,,,,,,,,,,,,,,,,,,,,,,,,,,,,
310,3,7,,,,,,,,,,,,,,,,,,,,,,,,,,,,,,,,,,,
311,2,2,2,,,,,,,,,,,,,,,,,,,,,,,,,,,,,,,,,,
312,5,5,,,,,,,,,,,,,,,,,,,,,,,,,,,,,,,,,,,
313,2,2,2,,,,,,,,,,,,,,,,,,,,,,,,,,,,,,,,,,
314,3,3,,,,,,,,,,,,,,,,,,,,,,,,,,,,,,,,,,,
315,2,2,,,,,,,,,,,,,,,,,,,,,,,,,,,,,,,,,,,
316,5,3,,,,,,,,,,,,,,,,,,,,,,,,,,,,,,,,,,,
317,2,2,2,,,,,,,,,,,,,,,,,,,,,,,,,,,,,,,,,,
318,5,5,,,,,,,,,,,,,,,,,,,,,,,,,,,,,,,,,,,
319,2,2,,,,,,,,,,,,,,,,,,,,,,,,,,,,,,,,,,,
320,7,7,,,,,,,,,,,,,,,,,,,,,,,,,,,,,,,,,,,
321,3,2,,,,,,,,,,,,,,,,,,,,,,,,,,,,,,,,,,,
322,3,3,,,,,,,,,,,,,,,,,,,,,,,,,,,,,,,,,,,
323,2,2,,,,,,,,,,,,,,,,,,,,,,,,,,,,,,,,,,,
324,7,5,,,,,,,,,,,,,,,,,,,,,,,,,,,,,,,,,,,
325,3,3,,,,,,,,,,,,,,,,,,,,,,,,,,,,,,,,,,,
326,3,3,,,,,,,,,,,,,,,,,,,,,,,,,,,,,,,,,,,
327,2,2,,,,,,,,,,,,,,,,,,,,,,,,,,,,,,,,,,,
328,3,3,,,,,,,,,,,,,,,,,,,,,,,,,,,,,,,,,,,
329,3,2,,,,,,,,,,,,,,,,,,,,,,,,,,,,,,,,,,,
330,5,11,,,,,,,,,,,,,,,,,,,,,,,,,,,,,,,,,,,
331,2,2,2,,,,,,,,,,,,,,,,,,,,,,,,,,,,,,,,,,
332,3,3,,,,,,,,,,,,,,,,,,,,,,,,,,,,,,,,,,,
333,2,2,,,,,,,,,,,,,,,,,,,,,,,,,,,,,,,,,,,
334,3,3,,,,,,,,,,,,,,,,,,,,,,,,,,,,,,,,,,,
335,2,2,,,,,,,,,,,,,,,,,,,,,,,,,,,,,,,,,,,
336,5,5,,,,,,,,,,,,,,,,,,,,,,,,,,,,,,,,,,,
337,2,2,2,,,,,,,,,,,,,,,,,,,,,,,,,,,,,,,,,,
338,3,5,,,,,,,,,,,,,,,,,,,,,,,,,,,,,,,,,,,
339,5,2,,,,,,,,,,,,,,,,,,,,,,,,,,,,,,,,,,,
340,3,3,,,,,,,,,,,,,,,,,,,,,,,,,,,,,,,,,,,
341,3,2,,,,,,,,,,,,,,,,,,,,,,,,,,,,,,,,,,,
342,11,5,,,,,,,,,,,,,,,,,,,,,,,,,,,,,,,,,,,
343,3,3,,,,,,,,,,,,,,,,,,,,,,,,,,,,,,,,,,,
344,3,3,,,,,,,,,,,,,,,,,,,,,,,,,,,,,,,,,,,
345,3,2,,,,,,,,,,,,,,,,,,,,,,,,,,,,,,,,,,,
346,3,3,,,,,,,,,,,,,,,,,,,,,,,,,,,,,,,,,,,
347,3,2,2,2,,,,,,,,,,,,,,,,,,,,,,,,,,,,,,,,,
348,5,5,,,,,,,,,,,,,,,,,,,,,,,,,,,,,,,,,,,
349,2,2,2,,,,,,,,,,,,,,,,,,,,,,,,,,,,,,,,,,
350,3,11,,,,,,,,,,,,,,,,,,,,,,,,,,,,,,,,,,,
351,2,2,,,,,,,,,,,,,,,,,,,,,,,,,,,,,,,,,,,
352,5,3,,,,,,,,,,,,,,,,,,,,,,,,,,,,,,,,,,,
353,2,2,2,,,,,,,,,,,,,,,,,,,,,,,,,,,,,,,,,,
354,5,5,,,,,,,,,,,,,,,,,,,,,,,,,,,,,,,,,,,
355,2,2,,,,,,,,,,,,,,,,,,,,,,,,,,,,,,,,,,,
356,3,3,,,,,,,,,,,,,,,,,,,,,,,,,,,,,,,,,,,
357,7,2,,,,,,,,,,,,,,,,,,,,,,,,,,,,,,,,,,,
358,5,3,,,,,,,,,,,,,,,,,,,,,,,,,,,,,,,,,,,
359,2,2,2,,,,,,,,,,,,,,,,,,,,,,,,,,,,,,,,,,
360,7,11,,,,,,,,,,,,,,,,,,,,,,,,,,,,,,,,,,,
361,3,3,,,,,,,,,,,,,,,,,,,,,,,,,,,,,,,,,,,
362,3,3,,,,,,,,,,,,,,,,,,,,,,,,,,,,,,,,,,,
363,2,5,,,,,,,,,,,,,,,,,,,,,,,,,,,,,,,,,,,
364,3,3,,,,,,,,,,,,,,,,,,,,,,,,,,,,,,,,,,,
365,2,3,,,,,,,,,,,,,,,,,,,,,,,,,,,,,,,,,,,
366,7,5,,,,,,,,,,,,,,,,,,,,,,,,,,,,,,,,,,,
367,2,2,2,,,,,,,,,,,,,,,,,,,,,,,,,,,,,,,,,,
368,5,3,,,,,,,,,,,,,,,,,,,,,,,,,,,,,,,,,,,
369,2,2,,,,,,,,,,,,,,,,,,,,,,,,,,,,,,,,,,,
370,7,3,,,,,,,,,,,,,,,,,,,,,,,,,,,,,,,,,,,
371,2,2,,,,,,,,,,,,,,,,,,,,,,,,,,,,,,,,,,,
372,5,5,,,,,,,,,,,,,,,,,,,,,,,,,,,,,,,,,,,
373,2,2,2,,,,,,,,,,,,,,,,,,,,,,,,,,,,,,,,,,
374,3,3,,,,,,,,,,,,,,,,,,,,,,,,,,,,,,,,,,,
375,2,2,,,,,,,,,,,,,,,,,,,,,,,,,,,,,,,,,,,
376,5,3,,,,,,,,,,,,,,,,,,,,,,,,,,,,,,,,,,,
377,2,2,,,,,,,,,,,,,,,,,,,,,,,,,,,,,,,,,,,
378,5,11,,,,,,,,,,,,,,,,,,,,,,,,,,,,,,,,,,,
379,2,2,2,,,,,,,,,,,,,,,,,,,,,,,,,,,,,,,,,,
380,3,3,,,,,,,,,,,,,,,,,,,,,,,,,,,,,,,,,,,
381,2,2,,,,,,,,,,,,,,,,,,,,,,,,,,,,,,,,,,,
382,3,3,,,,,,,,,,,,,,,,,,,,,,,,,,,,,,,,,,,
383,2,2,2,,,,,,,,,,,,,,,,,,,,,,,,,,,,,,,,,,
384,7,5,,,,,,,,,,,,,,,,,,,,,,,,,,,,,,,,,,,
385,3,11,,,,,,,,,,,,,,,,,,,,,,,,,,,,,,,,,,,
386,3,3,,,,,,,,,,,,,,,,,,,,,,,,,,,,,,,,,,,
387,5,5,,,,,,,,,,,,,,,,,,,,,,,,,,,,,,,,,,,
388,3,3,,,,,,,,,,,,,,,,,,,,,,,,,,,,,,,,,,,
389,2,2,2,,,,,,,,,,,,,,,,,,,,,,,,,,,,,,,,,,
390,7,11,,,,,,,,,,,,,,,,,,,,,,,,,,,,,,,,,,,
391,2,2,,,,,,,,,,,,,,,,,,,,,,,,,,,,,,,,,,,
392,3,5,,,,,,,,,,,,,,,,,,,,,,,,,,,,,,,,,,,
393,2,2,,,,,,,,,,,,,,,,,,,,,,,,,,,,,,,,,,,
394,5,3,,,,,,,,,,,,,,,,,,,,,,,,,,,,,,,,,,,
395,3,2,,,,,,,,,,,,,,,,,,,,,,,,,,,,,,,,,,,
396,7,7,,,,,,,,,,,,,,,,,,,,,,,,,,,,,,,,,,,
397,2,2,2,,,,,,,,,,,,,,,,,,,,,,,,,,,,,,,,,,
398,3,3,,,,,,,,,,,,,,,,,,,,,,,,,,,,,,,,,,,
399,3,2,,,,,,,,,,,,,,,,,,,,,,,,,,,,,,,,,,,
400,7,7,,,,,,,,,,,,,,,,,,,,,,,,,,,,,,,,,,,
401,2,2,2,,,,,,,,,,,,,,,,,,,,,,,,,,,,,,,,,,
402,5,5,,,,,,,,,,,,,,,,,,,,,,,,,,,,,,,,,,,
403,2,2,,,,,,,,,,,,,,,,,,,,,,,,,,,,,,,,,,,
404,3,3,,,,,,,,,,,,,,,,,,,,,,,,,,,,,,,,,,,
405,5,2,,,,,,,,,,,,,,,,,,,,,,,,,,,,,,,,,,,
406,5,5,,,,,,,,,,,,,,,,,,,,,,,,,,,,,,,,,,,
407,2,2,,,,,,,,,,,,,,,,,,,,,,,,,,,,,,,,,,,
408,5,5,,,,,,,,,,,,,,,,,,,,,,,,,,,,,,,,,,,
409,2,2,2,,,,,,,,,,,,,,,,,,,,,,,,,,,,,,,,,,
410,7,7,,,,,,,,,,,,,,,,,,,,,,,,,,,,,,,,,,,
411,5,2,,,,,,,,,,,,,,,,,,,,,,,,,,,,,,,,,,,
412,5,3,,,,,,,,,,,,,,,,,,,,,,,,,,,,,,,,,,,
413,3,2,,,,,,,,,,,,,,,,,,,,,,,,,,,,,,,,,,,
414,5,7,,,,,,,,,,,,,,,,,,,,,,,,,,,,,,,,,,,
415,2,2,,,,,,,,,,,,,,,,,,,,,,,,,,,,,,,,,,,
416,3,3,,,,,,,,,,,,,,,,,,,,,,,,,,,,,,,,,,,
417,3,2,,,,,,,,,,,,,,,,,,,,,,,,,,,,,,,,,,,
418,3,5,,,,,,,,,,,,,,,,,,,,,,,,,,,,,,,,,,,
419,2,2,2,,,,,,,,,,,,,,,,,,,,,,,,,,,,,,,,,,
420,5,13,,,,,,,,,,,,,,,,,,,,,,,,,,,,,,,,,,,
421,2,2,2,,,,,,,,,,,,,,,,,,,,,,,,,,,,,,,,,,
422,3,3,,,,,,,,,,,,,,,,,,,,,,,,,,,,,,,,,,,
423,7,5,,,,,,,,,,,,,,,,,,,,,,,,,,,,,,,,,,,
424,3,3,,,,,,,,,,,,,,,,,,,,,,,,,,,,,,,,,,,
425,3,3,,,,,,,,,,,,,,,,,,,,,,,,,,,,,,,,,,,
426,5,5,,,,,,,,,,,,,,,,,,,,,,,,,,,,,,,,,,,
427,2,2,,,,,,,,,,,,,,,,,,,,,,,,,,,,,,,,,,,
428,3,3,,,,,,,,,,,,,,,,,,,,,,,,,,,,,,,,,,,
429,3,2,,,,,,,,,,,,,,,,,,,,,,,,,,,,,,,,,,,
430,5,7,,,,,,,,,,,,,,,,,,,,,,,,,,,,,,,,,,,
431,3,2,2,2,,,,,,,,,,,,,,,,,,,,,,,,,,,,,,,,,
432,7,7,,,,,,,,,,,,,,,,,,,,,,,,,,,,,,,,,,,
433,3,2,2,2,,,,,,,,,,,,,,,,,,,,,,,,,,,,,,,,,
434,3,3,,,,,,,,,,,,,,,,,,,,,,,,,,,,,,,,,,,
435,3,7,,,,,,,,,,,,,,,,,,,,,,,,,,,,,,,,,,,
436,3,3,,,,,,,,,,,,,,,,,,,,,,,,,,,,,,,,,,,
437,3,2,,,,,,,,,,,,,,,,,,,,,,,,,,,,,,,,,,,
438,7,5,,,,,,,,,,,,,,,,,,,,,,,,,,,,,,,,,,,
439,3,2,2,2,,,,,,,,,,,,,,,,,,,,,,,,,,,,,,,,,
440,11,3,,,,,,,,,,,,,,,,,,,,,,,,,,,,,,,,,,,
441,13,5,,,,,,,,,,,,,,,,,,,,,,,,,,,,,,,,,,,
442,5,3,,,,,,,,,,,,,,,,,,,,,,,,,,,,,,,,,,,
443,2,2,2,,,,,,,,,,,,,,,,,,,,,,,,,,,,,,,,,,
444,5,5,,,,,,,,,,,,,,,,,,,,,,,,,,,,,,,,,,,
445,3,2,,,,,,,,,,,,,,,,,,,,,,,,,,,,,,,,,,,
446,3,3,,,,,,,,,,,,,,,,,,,,,,,,,,,,,,,,,,,
447,2,2,,,,,,,,,,,,,,,,,,,,,,,,,,,,,,,,,,,
448,7,5,,,,,,,,,,,,,,,,,,,,,,,,,,,,,,,,,,,
449,2,2,2,,,,,,,,,,,,,,,,,,,,,,,,,,,,,,,,,,
450,11,11,,,,,,,,,,,,,,,,,,,,,,,,,,,,,,,,,,,
451,2,2,,,,,,,,,,,,,,,,,,,,,,,,,,,,,,,,,,,
452,3,3,,,,,,,,,,,,,,,,,,,,,,,,,,,,,,,,,,,
453,2,2,,,,,,,,,,,,,,,,,,,,,,,,,,,,,,,,,,,
454,3,3,,,,,,,,,,,,,,,,,,,,,,,,,,,,,,,,,,,
455,2,3,,,,,,,,,,,,,,,,,,,,,,,,,,,,,,,,,,,
456,5,5,,,,,,,,,,,,,,,,,,,,,,,,,,,,,,,,,,,
457,2,2,2,,,,,,,,,,,,,,,,,,,,,,,,,,,,,,,,,,
458,5,3,,,,,,,,,,,,,,,,,,,,,,,,,,,,,,,,,,,
459,5,2,,,,,,,,,,,,,,,,,,,,,,,,,,,,,,,,,,,
460,3,3,,,,,,,,,,,,,,,,,,,,,,,,,,,,,,,,,,,
461,2,2,2,,,,,,,,,,,,,,,,,,,,,,,,,,,,,,,,,,
462,5,5,,,,,,,,,,,,,,,,,,,,,,,,,,,,,,,,,,,
463,2,2,2,,,,,,,,,,,,,,,,,,,,,,,,,,,,,,,,,,
464,5,3,,,,,,,,,,,,,,,,,,,,,,,,,,,,,,,,,,,
465,2,7,,,,,,,,,,,,,,,,,,,,,,,,,,,,,,,,,,,
466,3,3,,,,,,,,,,,,,,,,,,,,,,,,,,,,,,,,,,,
467,2,2,2,,,,,,,,,,,,,,,,,,,,,,,,,,,,,,,,,,
468,7,5,,,,,,,,,,,,,,,,,,,,,,,,,,,,,,,,,,,
469,3,2,,,,,,,,,,,,,,,,,,,,,,,,,,,,,,,,,,,
470,5,7,,,,,,,,,,,,,,,,,,,,,,,,,,,,,,,,,,,
471,3,2,,,,,,,,,,,,,,,,,,,,,,,,,,,,,,,,,,,
472,11,3,,,,,,,,,,,,,,,,,,,,,,,,,,,,,,,,,,,
473,3,2,,,,,,,,,,,,,,,,,,,,,,,,,,,,,,,,,,,
474,5,,,,,,,,,,,,,,,,,,,,,,,,,,,,,,,,,,,,
475,2,,,,,,,,,,,,,,,,,,,,,,,,,,,,,,,,,,,,
476,3,,,,,,,,,,,,,,,,,,,,,,,,,,,,,,,,,,,,
477,2,,,,,,,,,,,,,,,,,,,,,,,,,,,,,,,,,,,,
478,3,,,,,,,,,,,,,,,,,,,,,,,,,,,,,,,,,,,,
479,2,2,2,,,,,,,,,,,,,,,,,,,,,,,,,,,,,,,,,,
480,7,,,,,,,,,,,,,,,,,,,,,,,,,,,,,,,,,,,,
481,2,,,,,,,,,,,,,,,,,,,,,,,,,,,,,,,,,,,,
482,5,,,,,,,,,,,,,,,,,,,,,,,,,,,,,,,,,,,,
483,5,,,,,,,,,,,,,,,,,,,,,,,,,,,,,,,,,,,,
484,7,,,,,,,,,,,,,,,,,,,,,,,,,,,,,,,,,,,,
485,3,,,,,,,,,,,,,,,,,,,,,,,,,,,,,,,,,,,,
486,5,,,,,,,,,,,,,,,,,,,,,,,,,,,,,,,,,,,,
487,3,2,2,2,,,,,,,,,,,,,,,,,,,,,,,,,,,,,,,,,
488,7,,,,,,,,,,,,,,,,,,,,,,,,,,,,,,,,,,,,
489,2,,,,,,,,,,,,,,,,,,,,,,,,,,,,,,,,,,,,
490,11,,,,,,,,,,,,,,,,,,,,,,,,,,,,,,,,,,,,
491,2,2,2,,,,,,,,,,,,,,,,,,,,,,,,,,,,,,,,,,
492,5,,,,,,,,,,,,,,,,,,,,,,,,,,,,,,,,,,,,
493,3,,,,,,,,,,,,,,,,,,,,,,,,,,,,,,,,,,,,
494,3,,,,,,,,,,,,,,,,,,,,,,,,,,,,,,,,,,,,
495,2,,,,,,,,,,,,,,,,,,,,,,,,,,,,,,,,,,,,
496,5,,,,,,,,,,,,,,,,,,,,,,,,,,,,,,,,,,,,
497,3,,,,,,,,,,,,,,,,,,,,,,,,,,,,,,,,,,,,
498,5,,,,,,,,,,,,,,,,,,,,,,,,,,,,,,,,,,,,
499,2,2,2,,,,,,,,,,,,,,,,,,,,,,,,,,,,,,,,,,
500,3,,,,,,,,,,,,,,,,,,,,,,,,,,,,,,,,,,,,
501,2,,,,,,,,,,,,,,,,,,,,,,,,,,,,,,,,,,,,
502,5,,,,,,,,,,,,,,,,,,,,,,,,,,,,,,,,,,,,
503,3,2,2,2,,,,,,,,,,,,,,,,,,,,,,,,,,,,,,,,,
504,11,,,,,,,,,,,,,,,,,,,,,,,,,,,,,,,,,,,,
505,2,,,,,,,,,,,,,,,,,,,,,,,,,,,,,,,,,,,,
506,5,,,,,,,,,,,,,,,,,,,,,,,,,,,,,,,,,,,,
507,5,,,,,,,,,,,,,,,,,,,,,,,,,,,,,,,,,,,,
508,5,,,,,,,,,,,,,,,,,,,,,,,,,,,,,,,,,,,,
509,2,2,2,,,,,,,,,,,,,,,,,,,,,,,,,,,,,,,,,,
510,7,,,,,,,,,,,,,,,,,,,,,,,,,,,,,,,,,,,,
511,2,,,,,,,,,,,,,,,,,,,,,,,,,,,,,,,,,,,,
512,5,,,,,,,,,,,,,,,,,,,,,,,,,,,,,,,,,,,,
513,2,,,,,,,,,,,,,,,,,,,,,,,,,,,,,,,,,,,,
514,3,,,,,,,,,,,,,,,,,,,,,,,,,,,,,,,,,,,,
515,3,,,,,,,,,,,,,,,,,,,,,,,,,,,,,,,,,,,,
516,5,,,,,,,,,,,,,,,,,,,,,,,,,,,,,,,,,,,,
517,5,,,,,,,,,,,,,,,,,,,,,,,,,,,,,,,,,,,,
518,3,,,,,,,,,,,,,,,,,,,,,,,,,,,,,,,,,,,,
519,2,,,,,,,,,,,,,,,,,,,,,,,,,,,,,,,,,,,,
520,7,,,,,,,,,,,,,,,,,,,,,,,,,,,,,,,,,,,,
521,2,2,2,,,,,,,,,,,,,,,,,,,,,,,,,,,,,,,,,,
522,7,,,,,,,,,,,,,,,,,,,,,,,,,,,,,,,,,,,,
523,2,2,2,,,,,,,,,,,,,,,,,,,,,,,,,,,,,,,,,,
524,3,,,,,,,,,,,,,,,,,,,,,,,,,,,,,,,,,,,,
525,11,,,,,,,,,,,,,,,,,,,,,,,,,,,,,,,,,,,,
526,3,,,,,,,,,,,,,,,,,,,,,,,,,,,,,,,,,,,,
527,2,,,,,,,,,,,,,,,,,,,,,,,,,,,,,,,,,,,,
528,11,,,,,,,,,,,,,,,,,,,,,,,,,,,,,,,,,,,,
529,5,,,,,,,,,,,,,,,,,,,,,,,,,,,,,,,,,,,,
530,3,,,,,,,,,,,,,,,,,,,,,,,,,,,,,,,,,,,,
531,2,,,,,,,,,,,,,,,,,,,,,,,,,,,,,,,,,,,,
532,3,,,,,,,,,,,,,,,,,,,,,,,,,,,,,,,,,,,,
533,2,,,,,,,,,,,,,,,,,,,,,,,,,,,,,,,,,,,,
534,7,,,,,,,,,,,,,,,,,,,,,,,,,,,,,,,,,,,,
535,2,,,,,,,,,,,,,,,,,,,,,,,,,,,,,,,,,,,,
536,3,,,,,,,,,,,,,,,,,,,,,,,,,,,,,,,,,,,,
537,7,,,,,,,,,,,,,,,,,,,,,,,,,,,,,,,,,,,,
538,3,,,,,,,,,,,,,,,,,,,,,,,,,,,,,,,,,,,,
539,3,,,,,,,,,,,,,,,,,,,,,,,,,,,,,,,,,,,,
540,7,,,,,,,,,,,,,,,,,,,,,,,,,,,,,,,,,,,,
541,2,2,2,,,,,,,,,,,,,,,,,,,,,,,,,,,,,,,,,,
542,5,,,,,,,,,,,,,,,,,,,,,,,,,,,,,,,,,,,,
543,2,,,,,,,,,,,,,,,,,,,,,,,,,,,,,,,,,,,,
544,7,,,,,,,,,,,,,,,,,,,,,,,,,,,,,,,,,,,,
545,2,,,,,,,,,,,,,,,,,,,,,,,,,,,,,,,,,,,,
546,5,,,,,,,,,,,,,,,,,,,,,,,,,,,,,,,,,,,,
547,2,2,2,,,,,,,,,,,,,,,,,,,,,,,,,,,,,,,,,,
548,3,,,,,,,,,,,,,,,,,,,,,,,,,,,,,,,,,,,,
549,5,,,,,,,,,,,,,,,,,,,,,,,,,,,,,,,,,,,,
550,13,,,,,,,,,,,,,,,,,,,,,,,,,,,,,,,,,,,,
551,3,,,,,,,,,,,,,,,,,,,,,,,,,,,,,,,,,,,,
552,5,,,,,,,,,,,,,,,,,,,,,,,,,,,,,,,,,,,,
553,2,,,,,,,,,,,,,,,,,,,,,,,,,,,,,,,,,,,,
554,3,,,,,,,,,,,,,,,,,,,,,,,,,,,,,,,,,,,,
555,5,,,,,,,,,,,,,,,,,,,,,,,,,,,,,,,,,,,,
556,3,,,,,,,,,,,,,,,,,,,,,,,,,,,,,,,,,,,,
557,2,2,2,,,,,,,,,,,,,,,,,,,,,,,,,,,,,,,,,,
558,7,,,,,,,,,,,,,,,,,,,,,,,,,,,,,,,,,,,,
559,2,,,,,,,,,,,,,,,,,,,,,,,,,,,,,,,,,,,,
560,5,,,,,,,,,,,,,,,,,,,,,,,,,,,,,,,,,,,,
561,3,,,,,,,,,,,,,,,,,,,,,,,,,,,,,,,,,,,,
562,3,,,,,,,,,,,,,,,,,,,,,,,,,,,,,,,,,,,,
563,3,2,2,2,,,,,,,,,,,,,,,,,,,,,,,,,,,,,,,,,
564,5,,,,,,,,,,,,,,,,,,,,,,,,,,,,,,,,,,,,
565,2,,,,,,,,,,,,,,,,,,,,,,,,,,,,,,,,,,,,
566,3,,,,,,,,,,,,,,,,,,,,,,,,,,,,,,,,,,,,
567,2,,,,,,,,,,,,,,,,,,,,,,,,,,,,,,,,,,,,
568,3,,,,,,,,,,,,,,,,,,,,,,,,,,,,,,,,,,,,
569,2,2,2,,,,,,,,,,,,,,,,,,,,,,,,,,,,,,,,,,
570,11,,,,,,,,,,,,,,,,,,,,,,,,,,,,,,,,,,,,
571,5,2,2,2,,,,,,,,,,,,,,,,,,,,,,,,,,,,,,,,,
572,5,,,,,,,,,,,,,,,,,,,,,,,,,,,,,,,,,,,,
573,2,,,,,,,,,,,,,,,,,,,,,,,,,,,,,,,,,,,,
574,5,,,,,,,,,,,,,,,,,,,,,,,,,,,,,,,,,,,,
575,3,,,,,,,,,,,,,,,,,,,,,,,,,,,,,,,,,,,,
576,11,,,,,,,,,,,,,,,,,,,,,,,,,,,,,,,,,,,,
577,3,2,2,2,,,,,,,,,,,,,,,,,,,,,,,,,,,,,,,,,
578,5,,,,,,,,,,,,,,,,,,,,,,,,,,,,,,,,,,,,
579,5,,,,,,,,,,,,,,,,,,,,,,,,,,,,,,,,,,,,
580,5,,,,,,,,,,,,,,,,,,,,,,,,,,,,,,,,,,,,
581,2,,,,,,,,,,,,,,,,,,,,,,,,,,,,,,,,,,,,
582,13,,,,,,,,,,,,,,,,,,,,,,,,,,,,,,,,,,,,
583,3,,,,,,,,,,,,,,,,,,,,,,,,,,,,,,,,,,,,
584,3,,,,,,,,,,,,,,,,,,,,,,,,,,,,,,,,,,,,
585,7,,,,,,,,,,,,,,,,,,,,,,,,,,,,,,,,,,,,
586,5,,,,,,,,,,,,,,,,,,,,,,,,,,,,,,,,,,,,
587,2,2,2,,,,,,,,,,,,,,,,,,,,,,,,,,,,,,,,,,
588,13,,,,,,,,,,,,,,,,,,,,,,,,,,,,,,,,,,,,
589,2,,,,,,,,,,,,,,,,,,,,,,,,,,,,,,,,,,,,
590,7,,,,,,,,,,,,,,,,,,,,,,,,,,,,,,,,,,,,
591,2,,,,,,,,,,,,,,,,,,,,,,,,,,,,,,,,,,,,
592,5,,,,,,,,,,,,,,,,,,,,,,,,,,,,,,,,,,,,
593,2,2,2,,,,,,,,,,,,,,,,,,,,,,,,,,,,,,,,,,
594,7,,,,,,,,,,,,,,,,,,,,,,,,,,,,,,,,,,,,
595,5,,,,,,,,,,,,,,,,,,,,,,,,,,,,,,,,,,,,
596,3,,,,,,,,,,,,,,,,,,,,,,,,,,,,,,,,,,,,
597,2,,,,,,,,,,,,,,,,,,,,,,,,,,,,,,,,,,,,
598,5,,,,,,,,,,,,,,,,,,,,,,,,,,,,,,,,,,,,
599,2,2,2,,,,,,,,,,,,,,,,,,,,,,,,,,,,,,,,,,
600,7,,,,,,,,,,,,,,,,,,,,,,,,,,,,,,,,,,,,
601,2,2,2,,,,,,,,,,,,,,,,,,,,,,,,,,,,,,,,,,
602,3,,,,,,,,,,,,,,,,,,,,,,,,,,,,,,,,,,,,
603,5,,,,,,,,,,,,,,,,,,,,,,,,,,,,,,,,,,,,
604,5,,,,,,,,,,,,,,,,,,,,,,,,,,,,,,,,,,,,
605,3,,,,,,,,,,,,,,,,,,,,,,,,,,,,,,,,,,,,
606,5,,,,,,,,,,,,,,,,,,,,,,,,,,,,,,,,,,,,
607,2,2,2,,,,,,,,,,,,,,,,,,,,,,,,,,,,,,,,,,
608,7,,,,,,,,,,,,,,,,,,,,,,,,,,,,,,,,,,,,
609,2,,,,,,,,,,,,,,,,,,,,,,,,,,,,,,,,,,,,
610,5,,,,,,,,,,,,,,,,,,,,,,,,,,,,,,,,,,,,
611,2,,,,,,,,,,,,,,,,,,,,,,,,,,,,,,,,,,,,
612,3,,,,,,,,,,,,,,,,,,,,,,,,,,,,,,,,,,,,
613,2,2,2,,,,,,,,,,,,,,,,,,,,,,,,,,,,,,,,,,
614,5,,,,,,,,,,,,,,,,,,,,,,,,,,,,,,,,,,,,
615,2,,,,,,,,,,,,,,,,,,,,,,,,,,,,,,,,,,,,
616,5,,,,,,,,,,,,,,,,,,,,,,,,,,,,,,,,,,,,
617,2,2,2,,,,,,,,,,,,,,,,,,,,,,,,,,,,,,,,,,
618,5,,,,,,,,,,,,,,,,,,,,,,,,,,,,,,,,,,,,
619,2,2,2,,,,,,,,,,,,,,,,,,,,,,,,,,,,,,,,,,
620,3,,,,,,,,,,,,,,,,,,,,,,,,,,,,,,,,,,,,
621,5,,,,,,,,,,,,,,,,,,,,,,,,,,,,,,,,,,,,
622,3,,,,,,,,,,,,,,,,,,,,,,,,,,,,,,,,,,,,
623,3,,,,,,,,,,,,,,,,,,,,,,,,,,,,,,,,,,,,
624,7,,,,,,,,,,,,,,,,,,,,,,,,,,,,,,,,,,,,
625,3,,,,,,,,,,,,,,,,,,,,,,,,,,,,,,,,,,,,
626,7,,,,,,,,,,,,,,,,,,,,,,,,,,,,,,,,,,,,
627,5,,,,,,,,,,,,,,,,,,,,,,,,,,,,,,,,,,,,
628,3,,,,,,,,,,,,,,,,,,,,,,,,,,,,,,,,,,,,
629,2,,,,,,,,,,,,,,,,,,,,,,,,,,,,,,,,,,,,
630,13,,,,,,,,,,,,,,,,,,,,,,,,,,,,,,,,,,,,
631,2,2,2,,,,,,,,,,,,,,,,,,,,,,,,,,,,,,,,,,
632,5,,,,,,,,,,,,,,,,,,,,,,,,,,,,,,,,,,,,
633,2,,,,,,,,,,,,,,,,,,,,,,,,,,,,,,,,,,,,
634,3,,,,,,,,,,,,,,,,,,,,,,,,,,,,,,,,,,,,
635,3,,,,,,,,,,,,,,,,,,,,,,,,,,,,,,,,,,,,
636,5,,,,,,,,,,,,,,,,,,,,,,,,,,,,,,,,,,,,
637,13,,,,,,,,,,,,,,,,,,,,,,,,,,,,,,,,,,,,
638,3,,,,,,,,,,,,,,,,,,,,,,,,,,,,,,,,,,,,
639,5,,,,,,,,,,,,,,,,,,,,,,,,,,,,,,,,,,,,
640,7,,,,,,,,,,,,,,,,,,,,,,,,,,,,,,,,,,,,
641,2,2,2,,,,,,,,,,,,,,,,,,,,,,,,,,,,,,,,,,
642,7,,,,,,,,,,,,,,,,,,,,,,,,,,,,,,,,,,,,
643,2,2,2,,,,,,,,,,,,,,,,,,,,,,,,,,,,,,,,,,
644,3,,,,,,,,,,,,,,,,,,,,,,,,,,,,,,,,,,,,
645,5,,,,,,,,,,,,,,,,,,,,,,,,,,,,,,,,,,,,
646,5,,,,,,,,,,,,,,,,,,,,,,,,,,,,,,,,,,,,
647,2,2,2,,,,,,,,,,,,,,,,,,,,,,,,,,,,,,,,,,
648,7,,,,,,,,,,,,,,,,,,,,,,,,,,,,,,,,,,,,
649,5,,,,,,,,,,,,,,,,,,,,,,,,,,,,,,,,,,,,
650,7,,,,,,,,,,,,,,,,,,,,,,,,,,,,,,,,,,,,
651,5,,,,,,,,,,,,,,,,,,,,,,,,,,,,,,,,,,,,
652,3,,,,,,,,,,,,,,,,,,,,,,,,,,,,,,,,,,,,
653,2,,,,,,,,,,,,,,,,,,,,,,,,,,,,,,,,,,,,
654,5,,,,,,,,,,,,,,,,,,,,,,,,,,,,,,,,,,,,
655,2,,,,,,,,,,,,,,,,,,,,,,,,,,,,,,,,,,,,
656,3,,,,,,,,,,,,,,,,,,,,,,,,,,,,,,,,,,,,
657,5,,,,,,,,,,,,,,,,,,,,,,,,,,,,,,,,,,,,
658,3,,,,,,,,,,,,,,,,,,,,,,,,,,,,,,,,,,,,
659,2,,,,,,,,,,,,,,,,,,,,,,,,,,,,,,,,,,,,
660,7,,,,,,,,,,,,,,,,,,,,,,,,,,,,,,,,,,,,
661,2,,,,,,,,,,,,,,,,,,,,,,,,,,,,,,,,,,,,
662,3,,,,,,,,,,,,,,,,,,,,,,,,,,,,,,,,,,,,
663,3,,,,,,,,,,,,,,,,,,,,,,,,,,,,,,,,,,,,
664,3,,,,,,,,,,,,,,,,,,,,,,,,,,,,,,,,,,,,
665,3,,,,,,,,,,,,,,,,,,,,,,,,,,,,,,,,,,,,
666,7,,,,,,,,,,,,,,,,,,,,,,,,,,,,,,,,,,,,
667,2,,,,,,,,,,,,,,,,,,,,,,,,,,,,,,,,,,,,
668,3,,,,,,,,,,,,,,,,,,,,,,,,,,,,,,,,,,,,
669,2,,,,,,,,,,,,,,,,,,,,,,,,,,,,,,,,,,,,
670,3,,,,,,,,,,,,,,,,,,,,,,,,,,,,,,,,,,,,
671,2,,,,,,,,,,,,,,,,,,,,,,,,,,,,,,,,,,,,
672,5,,,,,,,,,,,,,,,,,,,,,,,,,,,,,,,,,,,,
673,3,2,2,2,,,,,,,,,,,,,,,,,,,,,,,,,,,,,,,,,
674,5,,,,,,,,,,,,,,,,,,,,,,,,,,,,,,,,,,,,
675,11,,,,,,,,,,,,,,,,,,,,,,,,,,,,,,,,,,,,
676,7,,,,,,,,,,,,,,,,,,,,,,,,,,,,,,,,,,,,
677,2,2,2,,,,,,,,,,,,,,,,,,,,,,,,,,,,,,,,,,
678,7,,,,,,,,,,,,,,,,,,,,,,,,,,,,,,,,,,,,
679,2,,,,,,,,,,,,,,,,,,,,,,,,,,,,,,,,,,,,
680,3,,,,,,,,,,,,,,,,,,,,,,,,,,,,,,,,,,,,
681,5,,,,,,,,,,,,,,,,,,,,,,,,,,,,,,,,,,,,
682,3,,,,,,,,,,,,,,,,,,,,,,,,,,,,,,,,,,,,
683,2,2,2,,,,,,,,,,,,,,,,,,,,,,,,,,,,,,,,,,
684,5,,,,,,,,,,,,,,,,,,,,,,,,,,,,,,,,,,,,
685,2,,,,,,,,,,,,,,,,,,,,,,,,,,,,,,,,,,,,
686,3,,,,,,,,,,,,,,,,,,,,,,,,,,,,,,,,,,,,
687,5,,,,,,,,,,,,,,,,,,,,,,,,,,,,,,,,,,,,
688,5,,,,,,,,,,,,,,,,,,,,,,,,,,,,,,,,,,,,
689,3,,,,,,,,,,,,,,,,,,,,,,,,,,,,,,,,,,,,
690,11,,,,,,,,,,,,,,,,,,,,,,,,,,,,,,,,,,,,
691,2,2,2,,,,,,,,,,,,,,,,,,,,,,,,,,,,,,,,,,
692,3,,,,,,,,,,,,,,,,,,,,,,,,,,,,,,,,,,,,
693,5,,,,,,,,,,,,,,,,,,,,,,,,,,,,,,,,,,,,
694,3,,,,,,,,,,,,,,,,,,,,,,,,,,,,,,,,,,,,
695,2,,,,,,,,,,,,,,,,,,,,,,,,,,,,,,,,,,,,
696,7,,,,,,,,,,,,,,,,,,,,,,,,,,,,,,,,,,,,
697,3,,,,,,,,,,,,,,,,,,,,,,,,,,,,,,,,,,,,
698,3,,,,,,,,,,,,,,,,,,,,,,,,,,,,,,,,,,,,
699,2,,,,,,,,,,,,,,,,,,,,,,,,,,,,,,,,,,,,
700,11,,,,,,,,,,,,,,,,,,,,,,,,,,,,,,,,,,,,
701,2,2,2,,,,,,,,,,,,,,,,,,,,,,,,,,,,,,,,,,
702,7,,,,,,,,,,,,,,,,,,,,,,,,,,,,,,,,,,,,
703,2,,,,,,,,,,,,,,,,,,,,,,,,,,,,,,,,,,,,
704,7,,,,,,,,,,,,,,,,,,,,,,,,,,,,,,,,,,,,
705,5,,,,,,,,,,,,,,,,,,,,,,,,,,,,,,,,,,,,
706,5,,,,,,,,,,,,,,,,,,,,,,,,,,,,,,,,,,,,
707,3,,,,,,,,,,,,,,,,,,,,,,,,,,,,,,,,,,,,
708,7,,,,,,,,,,,,,,,,,,,,,,,,,,,,,,,,,,,,
709,2,2,2,,,,,,,,,,,,,,,,,,,,,,,,,,,,,,,,,,
710,7,,,,,,,,,,,,,,,,,,,,,,,,,,,,,,,,,,,,
711,5,,,,,,,,,,,,,,,,,,,,,,,,,,,,,,,,,,,,
712,3,,,,,,,,,,,,,,,,,,,,,,,,,,,,,,,,,,,,
713,2,,,,,,,,,,,,,,,,,,,,,,,,,,,,,,,,,,,,
714,11,,,,,,,,,,,,,,,,,,,,,,,,,,,,,,,,,,,,
715,2,,,,,,,,,,,,,,,,,,,,,,,,,,,,,,,,,,,,
716,3,,,,,,,,,,,,,,,,,,,,,,,,,,,,,,,,,,,,
717,3,,,,,,,,,,,,,,,,,,,,,,,,,,,,,,,,,,,,
718,3,,,,,,,,,,,,,,,,,,,,,,,,,,,,,,,,,,,,
719,2,2,2,,,,,,,,,,,,,,,,,,,,,,,,,,,,,,,,,,
720,13,,,,,,,,,,,,,,,,,,,,,,,,,,,,,,,,,,,,
721,3,,,,,,,,,,,,,,,,,,,,,,,,,,,,,,,,,,,,
722,7,,,,,,,,,,,,,,,,,,,,,,,,,,,,,,,,,,,,
723,7,,,,,,,,,,,,,,,,,,,,,,,,,,,,,,,,,,,,
724,5,,,,,,,,,,,,,,,,,,,,,,,,,,,,,,,,,,,,
725,3,,,,,,,,,,,,,,,,,,,,,,,,,,,,,,,,,,,,
726,5,,,,,,,,,,,,,,,,,,,,,,,,,,,,,,,,,,,,
727,2,,,,,,,,,,,,,,,,,,,,,,,,,,,,,,,,,,,,
728,3,,,,,,,,,,,,,,,,,,,,,,,,,,,,,,,,,,,,
729,2,,,,,,,,,,,,,,,,,,,,,,,,,,,,,,,,,,,,
730,5,,,,,,,,,,,,,,,,,,,,,,,,,,,,,,,,,,,,
731,3,,,,,,,,,,,,,,,,,,,,,,,,,,,,,,,,,,,,
732,7,,,,,,,,,,,,,,,,,,,,,,,,,,,,,,,,,,,,
733,3,,,,,,,,,,,,,,,,,,,,,,,,,,,,,,,,,,,,
734,3,,,,,,,,,,,,,,,,,,,,,,,,,,,,,,,,,,,,
735,3,,,,,,,,,,,,,,,,,,,,,,,,,,,,,,,,,,,,
736,5,,,,,,,,,,,,,,,,,,,,,,,,,,,,,,,,,,,,
737,2,,,,,,,,,,,,,,,,,,,,,,,,,,,,,,,,,,,,
738,11,,,,,,,,,,,,,,,,,,,,,,,,,,,,,,,,,,,,
739,2,,,,,,,,,,,,,,,,,,,,,,,,,,,,,,,,,,,,
740,3,,,,,,,,,,,,,,,,,,,,,,,,,,,,,,,,,,,,
741,5,,,,,,,,,,,,,,,,,,,,,,,,,,,,,,,,,,,,
742,5,,,,,,,,,,,,,,,,,,,,,,,,,,,,,,,,,,,,
743,2,,,,,,,,,,,,,,,,,,,,,,,,,,,,,,,,,,,,
744,7,,,,,,,,,,,,,,,,,,,,,,,,,,,,,,,,,,,,
745,2,,,,,,,,,,,,,,,,,,,,,,,,,,,,,,,,,,,,
746,3,,,,,,,,,,,,,,,,,,,,,,,,,,,,,,,,,,,,
747,7,,,,,,,,,,,,,,,,,,,,,,,,,,,,,,,,,,,,
748,3,,,,,,,,,,,,,,,,,,,,,,,,,,,,,,,,,,,,
749,2,,,,,,,,,,,,,,,,,,,,,,,,,,,,,,,,,,,,
750,7,,,,,,,,,,,,,,,,,,,,,,,,,,,,,,,,,,,,
751,2,,,,,,,,,,,,,,,,,,,,,,,,,,,,,,,,,,,,
752,5,,,,,,,,,,,,,,,,,,,,,,,,,,,,,,,,,,,,
753,5,,,,,,,,,,,,,,,,,,,,,,,,,,,,,,,,,,,,
754,5,,,,,,,,,,,,,,,,,,,,,,,,,,,,,,,,,,,,
755,3,,,,,,,,,,,,,,,,,,,,,,,,,,,,,,,,,,,,
756,11,,,,,,,,,,,,,,,,,,,,,,,,,,,,,,,,,,,,
757,2,,,,,,,,,,,,,,,,,,,,,,,,,,,,,,,,,,,,
758,3,,,,,,,,,,,,,,,,,,,,,,,,,,,,,,,,,,,,
759,3,,,,,,,,,,,,,,,,,,,,,,,,,,,,,,,,,,,,
760,7,,,,,,,,,,,,,,,,,,,,,,,,,,,,,,,,,,,,
761,3,,,,,,,,,,,,,,,,,,,,,,,,,,,,,,,,,,,,
762,5,,,,,,,,,,,,,,,,,,,,,,,,,,,,,,,,,,,,
763,2,,,,,,,,,,,,,,,,,,,,,,,,,,,,,,,,,,,,
764,3,,,,,,,,,,,,,,,,,,,,,,,,,,,,,,,,,,,,
765,7,,,,,,,,,,,,,,,,,,,,,,,,,,,,,,,,,,,,
766,5,,,,,,,,,,,,,,,,,,,,,,,,,,,,,,,,,,,,
767,3,,,,,,,,,,,,,,,,,,,,,,,,,,,,,,,,,,,,
768,7,,,,,,,,,,,,,,,,,,,,,,,,,,,,,,,,,,,,
769,2,,,,,,,,,,,,,,,,,,,,,,,,,,,,,,,,,,,,
770,13,,,,,,,,,,,,,,,,,,,,,,,,,,,,,,,,,,,,
771,5,,,,,,,,,,,,,,,,,,,,,,,,,,,,,,,,,,,,
772,3,,,,,,,,,,,,,,,,,,,,,,,,,,,,,,,,,,,,
773,5,,,,,,,,,,,,,,,,,,,,,,,,,,,,,,,,,,,,
774,5,,,,,,,,,,,,,,,,,,,,,,,,,,,,,,,,,,,,
775,3,,,,,,,,,,,,,,,,,,,,,,,,,,,,,,,,,,,,
776,3,,,,,,,,,,,,,,,,,,,,,,,,,,,,,,,,,,,,
777,3,,,,,,,,,,,,,,,,,,,,,,,,,,,,,,,,,,,,
778,3,,,,,,,,,,,,,,,,,,,,,,,,,,,,,,,,,,,,
779,2,,,,,,,,,,,,,,,,,,,,,,,,,,,,,,,,,,,,
780,7,,,,,,,,,,,,,,,,,,,,,,,,,,,,,,,,,,,,
781,7,,,,,,,,,,,,,,,,,,,,,,,,,,,,,,,,,,,,
782,7,,,,,,,,,,,,,,,,,,,,,,,,,,,,,,,,,,,,
783,2,,,,,,,,,,,,,,,,,,,,,,,,,,,,,,,,,,,,
784,5,,,,,,,,,,,,,,,,,,,,,,,,,,,,,,,,,,,,
785,2,,,,,,,,,,,,,,,,,,,,,,,,,,,,,,,,,,,,
786,7,,,,,,,,,,,,,,,,,,,,,,,,,,,,,,,,,,,,
787,2,,,,,,,,,,,,,,,,,,,,,,,,,,,,,,,,,,,,
788,3,,,,,,,,,,,,,,,,,,,,,,,,,,,,,,,,,,,,
789,2,,,,,,,,,,,,,,,,,,,,,,,,,,,,,,,,,,,,
790,7,,,,,,,,,,,,,,,,,,,,,,,,,,,,,,,,,,,,
791,5,,,,,,,,,,,,,,,,,,,,,,,,,,,,,,,,,,,,
792,11,,,,,,,,,,,,,,,,,,,,,,,,,,,,,,,,,,,,
793,2,,,,,,,,,,,,,,,,,,,,,,,,,,,,,,,,,,,,
794,3,,,,,,,,,,,,,,,,,,,,,,,,,,,,,,,,,,,,
795,3,,,,,,,,,,,,,,,,,,,,,,,,,,,,,,,,,,,,
796,5,,,,,,,,,,,,,,,,,,,,,,,,,,,,,,,,,,,,
797,3,,,,,,,,,,,,,,,,,,,,,,,,,,,,,,,,,,,,
798,7,,,,,,,,,,,,,,,,,,,,,,,,,,,,,,,,,,,,
799,5,,,,,,,,,,,,,,,,,,,,,,,,,,,,,,,,,,,,
800,13,,,,,,,,,,,,,,,,,,,,,,,,,,,,,,,,,,,,
801,5,,,,,,,,,,,,,,,,,,,,,,,,,,,,,,,,,,,,
802,3,,,,,,,,,,,,,,,,,,,,,,,,,,,,,,,,,,,,
803,3,,,,,,,,,,,,,,,,,,,,,,,,,,,,,,,,,,,,
804,5,,,,,,,,,,,,,,,,,,,,,,,,,,,,,,,,,,,,
805,11,,,,,,,,,,,,,,,,,,,,,,,,,,,,,,,,,,,,
806,5,,,,,,,,,,,,,,,,,,,,,,,,,,,,,,,,,,,,
807,5,,,,,,,,,,,,,,,,,,,,,,,,,,,,,,,,,,,,
808,3,,,,,,,,,,,,,,,,,,,,,,,,,,,,,,,,,,,,
809,2,,,,,,,,,,,,,,,,,,,,,,,,,,,,,,,,,,,,
810,11,,,,,,,,,,,,,,,,,,,,,,,,,,,,,,,,,,,,
811,2,,,,,,,,,,,,,,,,,,,,,,,,,,,,,,,,,,,,
812,5,,,,,,,,,,,,,,,,,,,,,,,,,,,,,,,,,,,,
813,2,,,,,,,,,,,,,,,,,,,,,,,,,,,,,,,,,,,,
814,3,,,,,,,,,,,,,,,,,,,,,,,,,,,,,,,,,,,,
815,2,,,,,,,,,,,,,,,,,,,,,,,,,,,,,,,,,,,,
816,19,,,,,,,,,,,,,,,,,,,,,,,,,,,,,,,,,,,,
817,7,,,,,,,,,,,,,,,,,,,,,,,,,,,,,,,,,,,,
818,3,,,,,,,,,,,,,,,,,,,,,,,,,,,,,,,,,,,,
819,5,,,,,,,,,,,,,,,,,,,,,,,,,,,,,,,,,,,,
820,7,,,,,,,,,,,,,,,,,,,,,,,,,,,,,,,,,,,,
821,2,,,,,,,,,,,,,,,,,,,,,,,,,,,,,,,,,,,,
822,5,,,,,,,,,,,,,,,,,,,,,,,,,,,,,,,,,,,,
823,2,,,,,,,,,,,,,,,,,,,,,,,,,,,,,,,,,,,,
824,7,,,,,,,,,,,,,,,,,,,,,,,,,,,,,,,,,,,,
825,7,,,,,,,,,,,,,,,,,,,,,,,,,,,,,,,,,,,,
826,5,,,,,,,,,,,,,,,,,,,,,,,,,,,,,,,,,,,,
827,2,,,,,,,,,,,,,,,,,,,,,,,,,,,,,,,,,,,,
828,7,,,,,,,,,,,,,,,,,,,,,,,,,,,,,,,,,,,,
829,2,,,,,,,,,,,,,,,,,,,,,,,,,,,,,,,,,,,,
830,3,,,,,,,,,,,,,,,,,,,,,,,,,,,,,,,,,,,,
831,2,,,,,,,,,,,,,,,,,,,,,,,,,,,,,,,,,,,,
832,7,,,,,,,,,,,,,,,,,,,,,,,,,,,,,,,,,,,,
833,3,,,,,,,,,,,,,,,,,,,,,,,,,,,,,,,,,,,,
834,11,,,,,,,,,,,,,,,,,,,,,,,,,,,,,,,,,,,,
835,2,,,,,,,,,,,,,,,,,,,,,,,,,,,,,,,,,,,,
836,3,,,,,,,,,,,,,,,,,,,,,,,,,,,,,,,,,,,,
837,5,,,,,,,,,,,,,,,,,,,,,,,,,,,,,,,,,,,,
838,3,,,,,,,,,,,,,,,,,,,,,,,,,,,,,,,,,,,,
839,2,,,,,,,,,,,,,,,,,,,,,,,,,,,,,,,,,,,,
840,11,,,,,,,,,,,,,,,,,,,,,,,,,,,,,,,,,,,,
841,2,,,,,,,,,,,,,,,,,,,,,,,,,,,,,,,,,,,,
842,3,,,,,,,,,,,,,,,,,,,,,,,,,,,,,,,,,,,,
843,2,,,,,,,,,,,,,,,,,,,,,,,,,,,,,,,,,,,,
844,3,,,,,,,,,,,,,,,,,,,,,,,,,,,,,,,,,,,,
845,2,,,,,,,,,,,,,,,,,,,,,,,,,,,,,,,,,,,,
846,5,,,,,,,,,,,,,,,,,,,,,,,,,,,,,,,,,,,,
847,3,,,,,,,,,,,,,,,,,,,,,,,,,,,,,,,,,,,,
848,5,,,,,,,,,,,,,,,,,,,,,,,,,,,,,,,,,,,,
849,5,,,,,,,,,,,,,,,,,,,,,,,,,,,,,,,,,,,,
850,7,,,,,,,,,,,,,,,,,,,,,,,,,,,,,,,,,,,,
851,5,,,,,,,,,,,,,,,,,,,,,,,,,,,,,,,,,,,,
852,5,,,,,,,,,,,,,,,,,,,,,,,,,,,,,,,,,,,,
853,2,,,,,,,,,,,,,,,,,,,,,,,,,,,,,,,,,,,,
854,5,,,,,,,,,,,,,,,,,,,,,,,,,,,,,,,,,,,,
855,7,,,,,,,,,,,,,,,,,,,,,,,,,,,,,,,,,,,,
856,5,,,,,,,,,,,,,,,,,,,,,,,,,,,,,,,,,,,,
857,2,,,,,,,,,,,,,,,,,,,,,,,,,,,,,,,,,,,,
858,17,,,,,,,,,,,,,,,,,,,,,,,,,,,,,,,,,,,,
859,2,,,,,,,,,,,,,,,,,,,,,,,,,,,,,,,,,,,,
860,3,,,,,,,,,,,,,,,,,,,,,,,,,,,,,,,,,,,,
861,5,,,,,,,,,,,,,,,,,,,,,,,,,,,,,,,,,,,,
862,5,,,,,,,,,,,,,,,,,,,,,,,,,,,,,,,,,,,,
863,2,,,,,,,,,,,,,,,,,,,,,,,,,,,,,,,,,,,,
864,7,,,,,,,,,,,,,,,,,,,,,,,,,,,,,,,,,,,,
865,2,,,,,,,,,,,,,,,,,,,,,,,,,,,,,,,,,,,,
866,7,,,,,,,,,,,,,,,,,,,,,,,,,,,,,,,,,,,,
867,3,,,,,,,,,,,,,,,,,,,,,,,,,,,,,,,,,,,,
868,4,,,,,,,,,,,,,,,,,,,,,,,,,,,,,,,,,,,,
869,33,,,,,,,,,,,,,,,,,,,,,,,,,,,,,,,,,,,,
870,7,,,,,,,,,,,,,,,,,,,,,,,,,,,,,,,,,,,,
871,3,,,,,,,,,,,,,,,,,,,,,,,,,,,,,,,,,,,,
872,3,,,,,,,,,,,,,,,,,,,,,,,,,,,,,,,,,,,,
873,5,,,,,,,,,,,,,,,,,,,,,,,,,,,,,,,,,,,,
874,5,,,,,,,,,,,,,,,,,,,,,,,,,,,,,,,,,,,,
875,3,,,,,,,,,,,,,,,,,,,,,,,,,,,,,,,,,,,,
876,5,,,,,,,,,,,,,,,,,,,,,,,,,,,,,,,,,,,,
877,2,,,,,,,,,,,,,,,,,,,,,,,,,,,,,,,,,,,,
878,5,,,,,,,,,,,,,,,,,,,,,,,,,,,,,,,,,,,,
879,2,,,,,,,,,,,,,,,,,,,,,,,,,,,,,,,,,,,,
880,11,,,,,,,,,,,,,,,,,,,,,,,,,,,,,,,,,,,,
881,2,,,,,,,,,,,,,,,,,,,,,,,,,,,,,,,,,,,,
882,13,,,,,,,,,,,,,,,,,,,,,,,,,,,,,,,,,,,,
883,2,,,,,,,,,,,,,,,,,,,,,,,,,,,,,,,,,,,,
884,3,,,,,,,,,,,,,,,,,,,,,,,,,,,,,,,,,,,,
885,2,,,,,,,,,,,,,,,,,,,,,,,,,,,,,,,,,,,,
886,5,,,,,,,,,,,,,,,,,,,,,,,,,,,,,,,,,,,,
887,2,,,,,,,,,,,,,,,,,,,,,,,,,,,,,,,,,,,,
888,7,,,,,,,,,,,,,,,,,,,,,,,,,,,,,,,,,,,,
889,2,,,,,,,,,,,,,,,,,,,,,,,,,,,,,,,,,,,,
890,7,,,,,,,,,,,,,,,,,,,,,,,,,,,,,,,,,,,,
891,7,,,,,,,,,,,,,,,,,,,,,,,,,,,,,,,,,,,,
892,3,,,,,,,,,,,,,,,,,,,,,,,,,,,,,,,,,,,,
893,2,,,,,,,,,,,,,,,,,,,,,,,,,,,,,,,,,,,,
894,5,,,,,,,,,,,,,,,,,,,,,,,,,,,,,,,,,,,,
895,3,,,,,,,,,,,,,,,,,,,,,,,,,,,,,,,,,,,,
896,11,,,,,,,,,,,,,,,,,,,,,,,,,,,,,,,,,,,,
897,5,,,,,,,,,,,,,,,,,,,,,,,,,,,,,,,,,,,,
898,3,,,,,,,,,,,,,,,,,,,,,,,,,,,,,,,,,,,,
899,2,,,,,,,,,,,,,,,,,,,,,,,,,,,,,,,,,,,,
900,11,,,,,,,,,,,,,,,,,,,,,,,,,,,,,,,,,,,,
901,5,,,,,,,,,,,,,,,,,,,,,,,,,,,,,,,,,,,,
902,3,,,,,,,,,,,,,,,,,,,,,,,,,,,,,,,,,,,,
903,7,,,,,,,,,,,,,,,,,,,,,,,,,,,,,,,,,,,,
904,3,,,,,,,,,,,,,,,,,,,,,,,,,,,,,,,,,,,,
905,3,,,,,,,,,,,,,,,,,,,,,,,,,,,,,,,,,,,,
906,5,,,,,,,,,,,,,,,,,,,,,,,,,,,,,,,,,,,,
907,2,,,,,,,,,,,,,,,,,,,,,,,,,,,,,,,,,,,,
908,3,,,,,,,,,,,,,,,,,,,,,,,,,,,,,,,,,,,,
909,5,,,,,,,,,,,,,,,,,,,,,,,,,,,,,,,,,,,,
910,5,,,,,,,,,,,,,,,,,,,,,,,,,,,,,,,,,,,,
911,2,,,,,,,,,,,,,,,,,,,,,,,,,,,,,,,,,,,,
912,11,,,,,,,,,,,,,,,,,,,,,,,,,,,,,,,,,,,,
913,2,,,,,,,,,,,,,,,,,,,,,,,,,,,,,,,,,,,,
914,3,,,,,,,,,,,,,,,,,,,,,,,,,,,,,,,,,,,,
915,3,,,,,,,,,,,,,,,,,,,,,,,,,,,,,,,,,,,,
916,3,,,,,,,,,,,,,,,,,,,,,,,,,,,,,,,,,,,,
917,2,,,,,,,,,,,,,,,,,,,,,,,,,,,,,,,,,,,,
918,7,,,,,,,,,,,,,,,,,,,,,,,,,,,,,,,,,,,,
919,3,,,,,,,,,,,,,,,,,,,,,,,,,,,,,,,,,,,,
920,3,,,,,,,,,,,,,,,,,,,,,,,,,,,,,,,,,,,,
921,2,,,,,,,,,,,,,,,,,,,,,,,,,,,,,,,,,,,,
922,5,,,,,,,,,,,,,,,,,,,,,,,,,,,,,,,,,,,,
923,2,,,,,,,,,,,,,,,,,,,,,,,,,,,,,,,,,,,,
924,7,,,,,,,,,,,,,,,,,,,,,,,,,,,,,,,,,,,,
925,3,,,,,,,,,,,,,,,,,,,,,,,,,,,,,,,,,,,,
926,3,,,,,,,,,,,,,,,,,,,,,,,,,,,,,,,,,,,,
927,2,,,,,,,,,,,,,,,,,,,,,,,,,,,,,,,,,,,,
928,3,,,,,,,,,,,,,,,,,,,,,,,,,,,,,,,,,,,,
929,2,,,,,,,,,,,,,,,,,,,,,,,,,,,,,,,,,,,,
930,7,,,,,,,,,,,,,,,,,,,,,,,,,,,,,,,,,,,,
931,3,,,,,,,,,,,,,,,,,,,,,,,,,,,,,,,,,,,,
932,3,,,,,,,,,,,,,,,,,,,,,,,,,,,,,,,,,,,,
933,3,,,,,,,,,,,,,,,,,,,,,,,,,,,,,,,,,,,,
934,3,,,,,,,,,,,,,,,,,,,,,,,,,,,,,,,,,,,,
935,5,,,,,,,,,,,,,,,,,,,,,,,,,,,,,,,,,,,,
936,7,,,,,,,,,,,,,,,,,,,,,,,,,,,,,,,,,,,,
937,2,,,,,,,,,,,,,,,,,,,,,,,,,,,,,,,,,,,,
938,3,,,,,,,,,,,,,,,,,,,,,,,,,,,,,,,,,,,,
939,2,,,,,,,,,,,,,,,,,,,,,,,,,,,,,,,,,,,,
940,3,,,,,,,,,,,,,,,,,,,,,,,,,,,,,,,,,,,,
941,2,,,,,,,,,,,,,,,,,,,,,,,,,,,,,,,,,,,,
942,7,,,,,,,,,,,,,,,,,,,,,,,,,,,,,,,,,,,,
943,2,,,,,,,,,,,,,,,,,,,,,,,,,,,,,,,,,,,,
944,11,,,,,,,,,,,,,,,,,,,,,,,,,,,,,,,,,,,,
945,11,,,,,,,,,,,,,,,,,,,,,,,,,,,,,,,,,,,,
946,3,,,,,,,,,,,,,,,,,,,,,,,,,,,,,,,,,,,,
947,2,,,,,,,,,,,,,,,,,,,,,,,,,,,,,,,,,,,,
948,5,,,,,,,,,,,,,,,,,,,,,,,,,,,,,,,,,,,,
949,2,,,,,,,,,,,,,,,,,,,,,,,,,,,,,,,,,,,,
950,3,,,,,,,,,,,,,,,,,,,,,,,,,,,,,,,,,,,,
951,2,,,,,,,,,,,,,,,,,,,,,,,,,,,,,,,,,,,,
952,3,,,,,,,,,,,,,,,,,,,,,,,,,,,,,,,,,,,,
953,2,,,,,,,,,,,,,,,,,,,,,,,,,,,,,,,,,,,,
954,7,,,,,,,,,,,,,,,,,,,,,,,,,,,,,,,,,,,,
955,2,,,,,,,,,,,,,,,,,,,,,,,,,,,,,,,,,,,,
956,3,,,,,,,,,,,,,,,,,,,,,,,,,,,,,,,,,,,,
957,2,,,,,,,,,,,,,,,,,,,,,,,,,,,,,,,,,,,,
958,3,,,,,,,,,,,,,,,,,,,,,,,,,,,,,,,,,,,,
959,2,,,,,,,,,,,,,,,,,,,,,,,,,,,,,,,,,,,,
960,11,,,,,,,,,,,,,,,,,,,,,,,,,,,,,,,,,,,,
961,3,,,,,,,,,,,,,,,,,,,,,,,,,,,,,,,,,,,,
962,7,,,,,,,,,,,,,,,,,,,,,,,,,,,,,,,,,,,,
963,5,,,,,,,,,,,,,,,,,,,,,,,,,,,,,,,,,,,,
964,3,,,,,,,,,,,,,,,,,,,,,,,,,,,,,,,,,,,,
965,3,,,,,,,,,,,,,,,,,,,,,,,,,,,,,,,,,,,,
966,13,,,,,,,,,,,,,,,,,,,,,,,,,,,,,,,,,,,,
967,2,,,,,,,,,,,,,,,,,,,,,,,,,,,,,,,,,,,,
968,7,,,,,,,,,,,,,,,,,,,,,,,,,,,,,,,,,,,,
969,2,,,,,,,,,,,,,,,,,,,,,,,,,,,,,,,,,,,,
970,3,,,,,,,,,,,,,,,,,,,,,,,,,,,,,,,,,,,,
971,2,,,,,,,,,,,,,,,,,,,,,,,,,,,,,,,,,,,,
972,13,,,,,,,,,,,,,,,,,,,,,,,,,,,,,,,,,,,,
973,2,,,,,,,,,,,,,,,,,,,,,,,,,,,,,,,,,,,,
974,11,,,,,,,,,,,,,,,,,,,,,,,,,,,,,,,,,,,,
975,7,,,,,,,,,,,,,,,,,,,,,,,,,,,,,,,,,,,,
976,7,,,,,,,,,,,,,,,,,,,,,,,,,,,,,,,,,,,,
977,2,,,,,,,,,,,,,,,,,,,,,,,,,,,,,,,,,,,,
978,5,,,,,,,,,,,,,,,,,,,,,,,,,,,,,,,,,,,,
979,2,,,,,,,,,,,,,,,,,,,,,,,,,,,,,,,,,,,,
980,11,,,,,,,,,,,,,,,,,,,,,,,,,,,,,,,,,,,,
981,2,,,,,,,,,,,,,,,,,,,,,,,,,,,,,,,,,,,,
982,3,,,,,,,,,,,,,,,,,,,,,,,,,,,,,,,,,,,,
983,2,,,,,,,,,,,,,,,,,,,,,,,,,,,,,,,,,,,,
984,5,,,,,,,,,,,,,,,,,,,,,,,,,,,,,,,,,,,,
985,3,,,,,,,,,,,,,,,,,,,,,,,,,,,,,,,,,,,,
986,3,,,,,,,,,,,,,,,,,,,,,,,,,,,,,,,,,,,,
987,3,,,,,,,,,,,,,,,,,,,,,,,,,,,,,,,,,,,,
988,5,,,,,,,,,,,,,,,,,,,,,,,,,,,,,,,,,,,,
989,3,,,,,,,,,,,,,,,,,,,,,,,,,,,,,,,,,,,,
990,13,,,,,,,,,,,,,,,,,,,,,,,,,,,,,,,,,,,,
991,2,,,,,,,,,,,,,,,,,,,,,,,,,,,,,,,,,,,,
992,7,,,,,,,,,,,,,,,,,,,,,,,,,,,,,,,,,,,,
993,5,,,,,,,,,,,,,,,,,,,,,,,,,,,,,,,,,,,,
994,7,,,,,,,,,,,,,,,,,,,,,,,,,,,,,,,,,,,,
995,3,,,,,,,,,,,,,,,,,,,,,,,,,,,,,,,,,,,,
996,5,,,,,,,,,,,,,,,,,,,,,,,,,,,,,,,,,,,,
997,5,,,,,,,,,,,,,,,,,,,,,,,,,,,,,,,,,,,,
998,3,,,,,,,,,,,,,,,,,,,,,,,,,,,,,,,,,,,,
999,2,,,,,,,,,,,,,,,,,,,,,,,,,,,,,,,,,,,,
1000,7,,,,,,,,,,,,,,,,,,,,,,,,,,,,,,,,,,,,
1001,3,,,,,,,,,,,,,,,,,,,,,,,,,,,,,,,,,,,,
1002,5,,,,,,,,,,,,,,,,,,,,,,,,,,,,,,,,,,,,
1003,3,,,,,,,,,,,,,,,,,,,,,,,,,,,,,,,,,,,,
1004,3,,,,,,,,,,,,,,,,,,,,,,,,,,,,,,,,,,,,
1005,2,,,,,,,,,,,,,,,,,,,,,,,,,,,,,,,,,,,,
1006,3,,,,,,,,,,,,,,,,,,,,,,,,,,,,,,,,,,,,
1007,2,,,,,,,,,,,,,,,,,,,,,,,,,,,,,,,,,,,,
1008,11,,,,,,,,,,,,,,,,,,,,,,,,,,,,,,,,,,,,
1009,2,,,,,,,,,,,,,,,,,,,,,,,,,,,,,,,,,,,,
1010,3,,,,,,,,,,,,,,,,,,,,,,,,,,,,,,,,,,,,
1011,2,,,,,,,,,,,,,,,,,,,,,,,,,,,,,,,,,,,,
1012,5,,,,,,,,,,,,,,,,,,,,,,,,,,,,,,,,,,,,
1013,2,,,,,,,,,,,,,,,,,,,,,,,,,,,,,,,,,,,,
1014,5,,,,,,,,,,,,,,,,,,,,,,,,,,,,,,,,,,,,
1015,3,,,,,,,,,,,,,,,,,,,,,,,,,,,,,,,,,,,,
1016,5,,,,,,,,,,,,,,,,,,,,,,,,,,,,,,,,,,,,
1017,5,,,,,,,,,,,,,,,,,,,,,,,,,,,,,,,,,,,,
1018,3,,,,,,,,,,,,,,,,,,,,,,,,,,,,,,,,,,,,
1019,2,,,,,,,,,,,,,,,,,,,,,,,,,,,,,,,,,,,,
1020,7,,,,,,,,,,,,,,,,,,,,,,,,,,,,,,,,,,,,
1021,2,,,,,,,,,,,,,,,,,,,,,,,,,,,,,,,,,,,,
1022,3,,,,,,,,,,,,,,,,,,,,,,,,,,,,,,,,,,,,
1023,2,,,,,,,,,,,,,,,,,,,,,,,,,,,,,,,,,,,,
1024,5,,,,,,,,,,,,,,,,,,,,,,,,,,,,,,,,,,,,
1025,3,,,,,,,,,,,,,,,,,,,,,,,,,,,,,,,,,,,,
1026,11,,,,,,,,,,,,,,,,,,,,,,,,,,,,,,,,,,,,
1027,2,,,,,,,,,,,,,,,,,,,,,,,,,,,,,,,,,,,,
1028,5,,,,,,,,,,,,,,,,,,,,,,,,,,,,,,,,,,,,
1029,5,,,,,,,,,,,,,,,,,,,,,,,,,,,,,,,,,,,,
1030,3,,,,,,,,,,,,,,,,,,,,,,,,,,,,,,,,,,,,
1031,2,,,,,,,,,,,,,,,,,,,,,,,,,,,,,,,,,,,,
1032,11,,,,,,,,,,,,,,,,,,,,,,,,,,,,,,,,,,,,
1033,2,,,,,,,,,,,,,,,,,,,,,,,,,,,,,,,,,,,,
1034,3,,,,,,,,,,,,,,,,,,,,,,,,,,,,,,,,,,,,
1035,7,,,,,,,,,,,,,,,,,,,,,,,,,,,,,,,,,,,,
1036,3,,,,,,,,,,,,,,,,,,,,,,,,,,,,,,,,,,,,
1037,3,,,,,,,,,,,,,,,,,,,,,,,,,,,,,,,,,,,,
1038,5,,,,,,,,,,,,,,,,,,,,,,,,,,,,,,,,,,,,
1039,2,,,,,,,,,,,,,,,,,,,,,,,,,,,,,,,,,,,,
1040,7,,,,,,,,,,,,,,,,,,,,,,,,,,,,,,,,,,,,
1041,5,,,,,,,,,,,,,,,,,,,,,,,,,,,,,,,,,,,,
1042,3,,,,,,,,,,,,,,,,,,,,,,,,,,,,,,,,,,,,
1043,3,,,,,,,,,,,,,,,,,,,,,,,,,,,,,,,,,,,,
1044,11,,,,,,,,,,,,,,,,,,,,,,,,,,,,,,,,,,,,
1045,2,,,,,,,,,,,,,,,,,,,,,,,,,,,,,,,,,,,,
1046,3,,,,,,,,,,,,,,,,,,,,,,,,,,,,,,,,,,,,
1047,2,,,,,,,,,,,,,,,,,,,,,,,,,,,,,,,,,,,,
1048,3,,,,,,,,,,,,,,,,,,,,,,,,,,,,,,,,,,,,
1049,2,,,,,,,,,,,,,,,,,,,,,,,,,,,,,,,,,,,,
1050,13,,,,,,,,,,,,,,,,,,,,,,,,,,,,,,,,,,,,
1051,2,,,,,,,,,,,,,,,,,,,,,,,,,,,,,,,,,,,,
1052,3,,,,,,,,,,,,,,,,,,,,,,,,,,,,,,,,,,,,
1053,2,,,,,,,,,,,,,,,,,,,,,,,,,,,,,,,,,,,,
1054,5,,,,,,,,,,,,,,,,,,,,,,,,,,,,,,,,,,,,
1055,2,,,,,,,,,,,,,,,,,,,,,,,,,,,,,,,,,,,,
1056,7,,,,,,,,,,,,,,,,,,,,,,,,,,,,,,,,,,,,
1057,3,,,,,,,,,,,,,,,,,,,,,,,,,,,,,,,,,,,,
1058,7,,,,,,,,,,,,,,,,,,,,,,,,,,,,,,,,,,,,
1059,5,,,,,,,,,,,,,,,,,,,,,,,,,,,,,,,,,,,,
1060,3,,,,,,,,,,,,,,,,,,,,,,,,,,,,,,,,,,,,
1061,2,,,,,,,,,,,,,,,,,,,,,,,,,,,,,,,,,,,,
1062,11,,,,,,,,,,,,,,,,,,,,,,,,,,,,,,,,,,,,
1063,3,,,,,,,,,,,,,,,,,,,,,,,,,,,,,,,,,,,,
1064,5,,,,,,,,,,,,,,,,,,,,,,,,,,,,,,,,,,,,
1065,7,,,,,,,,,,,,,,,,,,,,,,,,,,,,,,,,,,,,
1066,5,,,,,,,,,,,,,,,,,,,,,,,,,,,,,,,,,,,,
1067,3,,,,,,,,,,,,,,,,,,,,,,,,,,,,,,,,,,,,
1068,5,,,,,,,,,,,,,,,,,,,,,,,,,,,,,,,,,,,,
1069,2,,,,,,,,,,,,,,,,,,,,,,,,,,,,,,,,,,,,
1070,5,,,,,,,,,,,,,,,,,,,,,,,,,,,,,,,,,,,,
1071,7,,,,,,,,,,,,,,,,,,,,,,,,,,,,,,,,,,,,
1072,5,,,,,,,,,,,,,,,,,,,,,,,,,,,,,,,,,,,,
1073,2,,,,,,,,,,,,,,,,,,,,,,,,,,,,,,,,,,,,
1074,7,,,,,,,,,,,,,,,,,,,,,,,,,,,,,,,,,,,,
1075,3,,,,,,,,,,,,,,,,,,,,,,,,,,,,,,,,,,,,
1076,3,,,,,,,,,,,,,,,,,,,,,,,,,,,,,,,,,,,,
1077,5,,,,,,,,,,,,,,,,,,,,,,,,,,,,,,,,,,,,
1078,13,,,,,,,,,,,,,,,,,,,,,,,,,,,,,,,,,,,,
1079,3,,,,,,,,,,,,,,,,,,,,,,,,,,,,,,,,,,,,
1080,11,,,,,,,,,,,,,,,,,,,,,,,,,,,,,,,,,,,,
1081,2,,,,,,,,,,,,,,,,,,,,,,,,,,,,,,,,,,,,
1082,5,,,,,,,,,,,,,,,,,,,,,,,,,,,,,,,,,,,,
1083,3,,,,,,,,,,,,,,,,,,,,,,,,,,,,,,,,,,,,
1084,3,,,,,,,,,,,,,,,,,,,,,,,,,,,,,,,,,,,,
1085,3,,,,,,,,,,,,,,,,,,,,,,,,,,,,,,,,,,,,
1086,5,,,,,,,,,,,,,,,,,,,,,,,,,,,,,,,,,,,,
1087,2,,,,,,,,,,,,,,,,,,,,,,,,,,,,,,,,,,,,
1088,7,,,,,,,,,,,,,,,,,,,,,,,,,,,,,,,,,,,,
1089,7,,,,,,,,,,,,,,,,,,,,,,,,,,,,,,,,,,,,
1090,5,,,,,,,,,,,,,,,,,,,,,,,,,,,,,,,,,,,,
1091,2,,,,,,,,,,,,,,,,,,,,,,,,,,,,,,,,,,,,
1092,5,,,,,,,,,,,,,,,,,,,,,,,,,,,,,,,,,,,,
1093,2,,,,,,,,,,,,,,,,,,,,,,,,,,,,,,,,,,,,
1094,3,,,,,,,,,,,,,,,,,,,,,,,,,,,,,,,,,,,,
1095,2,,,,,,,,,,,,,,,,,,,,,,,,,,,,,,,,,,,,
1096,5,,,,,,,,,,,,,,,,,,,,,,,,,,,,,,,,,,,,
1097,2,,,,,,,,,,,,,,,,,,,,,,,,,,,,,,,,,,,,
1098,7,,,,,,,,,,,,,,,,,,,,,,,,,,,,,,,,,,,,
1099,2,,,,,,,,,,,,,,,,,,,,,,,,,,,,,,,,,,,,
1100,6,,,,,,,,,,,,,,,,,,,,,,,,,,,,,,,,,,,,
1101,2,,,,,,,,,,,,,,,,,,,,,,,,,,,,,,,,,,,,
1102,6,,,,,,,,,,,,,,,,,,,,,,,,,,,,,,,,,,,,
1103,2,,,,,,,,,,,,,,,,,,,,,,,,,,,,,,,,,,,,
1104,6,,,,,,,,,,,,,,,,,,,,,,,,,,,,,,,,,,,,
1105,6,,,,,,,,,,,,,,,,,,,,,,,,,,,,,,,,,,,,
1106,5,,,,,,,,,,,,,,,,,,,,,,,,,,,,,,,,,,,,
1107,2,,,,,,,,,,,,,,,,,,,,,,,,,,,,,,,,,,,,
1108,3,,,,,,,,,,,,,,,,,,,,,,,,,,,,,,,,,,,,
1109,2,,,,,,,,,,,,,,,,,,,,,,,,,,,,,,,,,,,,
1110,13,,,,,,,,,,,,,,,,,,,,,,,,,,,,,,,,,,,,
1111,3,,,,,,,,,,,,,,,,,,,,,,,,,,,,,,,,,,,,
1112,3,,,,,,,,,,,,,,,,,,,,,,,,,,,,,,,,,,,,
1113,7,,,,,,,,,,,,,,,,,,,,,,,,,,,,,,,,,,,,
1114,3,,,,,,,,,,,,,,,,,,,,,,,,,,,,,,,,,,,,
1115,3,,,,,,,,,,,,,,,,,,,,,,,,,,,,,,,,,,,,
1116,7,,,,,,,,,,,,,,,,,,,,,,,,,,,,,,,,,,,,
1117,2,,,,,,,,,,,,,,,,,,,,,,,,,,,,,,,,,,,,
1118,3,,,,,,,,,,,,,,,,,,,,,,,,,,,,,,,,,,,,
1119,5,,,,,,,,,,,,,,,,,,,,,,,,,,,,,,,,,,,,
1120,13,,,,,,,,,,,,,,,,,,,,,,,,,,,,,,,,,,,,
1121,2,,,,,,,,,,,,,,,,,,,,,,,,,,,,,,,,,,,,
1122,13,,,,,,,,,,,,,,,,,,,,,,,,,,,,,,,,,,,,
1123,2,,,,,,,,,,,,,,,,,,,,,,,,,,,,,,,,,,,,
1124,3,,,,,,,,,,,,,,,,,,,,,,,,,,,,,,,,,,,,
1125,7,,,,,,,,,,,,,,,,,,,,,,,,,,,,,,,,,,,,
1126,3,,,,,,,,,,,,,,,,,,,,,,,,,,,,,,,,,,,,
1127,3,,,,,,,,,,,,,,,,,,,,,,,,,,,,,,,,,,,,
1128,5,,,,,,,,,,,,,,,,,,,,,,,,,,,,,,,,,,,,
1129,2,,,,,,,,,,,,,,,,,,,,,,,,,,,,,,,,,,,,
1130,7,,,,,,,,,,,,,,,,,,,,,,,,,,,,,,,,,,,,
1131,2,,,,,,,,,,,,,,,,,,,,,,,,,,,,,,,,,,,,
1132,5,,,,,,,,,,,,,,,,,,,,,,,,,,,,,,,,,,,,
1133,3,,,,,,,,,,,,,,,,,,,,,,,,,,,,,,,,,,,,
1134,5,,,,,,,,,,,,,,,,,,,,,,,,,,,,,,,,,,,,
1135,2,,,,,,,,,,,,,,,,,,,,,,,,,,,,,,,,,,,,
1136,5,,,,,,,,,,,,,,,,,,,,,,,,,,,,,,,,,,,,
1137,2,,,,,,,,,,,,,,,,,,,,,,,,,,,,,,,,,,,,
1138,3,,,,,,,,,,,,,,,,,,,,,,,,,,,,,,,,,,,,
1139,2,,,,,,,,,,,,,,,,,,,,,,,,,,,,,,,,,,,,
1140,7,,,,,,,,,,,,,,,,,,,,,,,,,,,,,,,,,,,,
1141,3,,,,,,,,,,,,,,,,,,,,,,,,,,,,,,,,,,,,
1142,7,,,,,,,,,,,,,,,,,,,,,,,,,,,,,,,,,,,,
1143,7,,,,,,,,,,,,,,,,,,,,,,,,,,,,,,,,,,,,
1144,13,,,,,,,,,,,,,,,,,,,,,,,,,,,,,,,,,,,,
1145,3,,,,,,,,,,,,,,,,,,,,,,,,,,,,,,,,,,,,
1146,7,,,,,,,,,,,,,,,,,,,,,,,,,,,,,,,,,,,,
1147,2,,,,,,,,,,,,,,,,,,,,,,,,,,,,,,,,,,,,
1148,3,,,,,,,,,,,,,,,,,,,,,,,,,,,,,,,,,,,,
1149,3,,,,,,,,,,,,,,,,,,,,,,,,,,,,,,,,,,,,
1150,7,,,,,,,,,,,,,,,,,,,,,,,,,,,,,,,,,,,,
1151,2,,,,,,,,,,,,,,,,,,,,,,,,,,,,,,,,,,,,
1152,13,,,,,,,,,,,,,,,,,,,,,,,,,,,,,,,,,,,,
1153,2,,,,,,,,,,,,,,,,,,,,,,,,,,,,,,,,,,,,
1154,3,,,,,,,,,,,,,,,,,,,,,,,,,,,,,,,,,,,,
1155,5,,,,,,,,,,,,,,,,,,,,,,,,,,,,,,,,,,,,
1156,3,,,,,,,,,,,,,,,,,,,,,,,,,,,,,,,,,,,,
1157,2,,,,,,,,,,,,,,,,,,,,,,,,,,,,,,,,,,,,
1158,7,,,,,,,,,,,,,,,,,,,,,,,,,,,,,,,,,,,,
1159,2,,,,,,,,,,,,,,,,,,,,,,,,,,,,,,,,,,,,
1160,7,,,,,,,,,,,,,,,,,,,,,,,,,,,,,,,,,,,,
1161,5,,,,,,,,,,,,,,,,,,,,,,,,,,,,,,,,,,,,
1162,3,,,,,,,,,,,,,,,,,,,,,,,,,,,,,,,,,,,,
1163,2,,,,,,,,,,,,,,,,,,,,,,,,,,,,,,,,,,,,
1164,7,,,,,,,,,,,,,,,,,,,,,,,,,,,,,,,,,,,,
1165,2,,,,,,,,,,,,,,,,,,,,,,,,,,,,,,,,,,,,
1166,7,,,,,,,,,,,,,,,,,,,,,,,,,,,,,,,,,,,,
1167,2,,,,,,,,,,,,,,,,,,,,,,,,,,,,,,,,,,,,
1168,3,,,,,,,,,,,,,,,,,,,,,,,,,,,,,,,,,,,,
1169,2,,,,,,,,,,,,,,,,,,,,,,,,,,,,,,,,,,,,
1170,17,,,,,,,,,,,,,,,,,,,,,,,,,,,,,,,,,,,,
1171,2,,,,,,,,,,,,,,,,,,,,,,,,,,,,,,,,,,,,
1172,3,,,,,,,,,,,,,,,,,,,,,,,,,,,,,,,,,,,,
1173,3,,,,,,,,,,,,,,,,,,,,,,,,,,,,,,,,,,,,
1174,5,,,,,,,,,,,,,,,,,,,,,,,,,,,,,,,,,,,,
1175,11,,,,,,,,,,,,,,,,,,,,,,,,,,,,,,,,,,,,
1176,11,,,,,,,,,,,,,,,,,,,,,,,,,,,,,,,,,,,,
1177,2,,,,,,,,,,,,,,,,,,,,,,,,,,,,,,,,,,,,
1178,5,,,,,,,,,,,,,,,,,,,,,,,,,,,,,,,,,,,,
1179,2,,,,,,,,,,,,,,,,,,,,,,,,,,,,,,,,,,,,
1180,7,,,,,,,,,,,,,,,,,,,,,,,,,,,,,,,,,,,,
1181,2,,,,,,,,,,,,,,,,,,,,,,,,,,,,,,,,,,,,
1182,7,,,,,,,,,,,,,,,,,,,,,,,,,,,,,,,,,,,,
1183,3,,,,,,,,,,,,,,,,,,,,,,,,,,,,,,,,,,,,
1184,7,,,,,,,,,,,,,,,,,,,,,,,,,,,,,,,,,,,,
1185,7,,,,,,,,,,,,,,,,,,,,,,,,,,,,,,,,,,,,
1186,3,,,,,,,,,,,,,,,,,,,,,,,,,,,,,,,,,,,,
1187,2,,,,,,,,,,,,,,,,,,,,,,,,,,,,,,,,,,,,
1188,11,,,,,,,,,,,,,,,,,,,,,,,,,,,,,,,,,,,,
1189,2,,,,,,,,,,,,,,,,,,,,,,,,,,,,,,,,,,,,
1190,7,,,,,,,,,,,,,,,,,,,,,,,,,,,,,,,,,,,,
1191,2,,,,,,,,,,,,,,,,,,,,,,,,,,,,,,,,,,,,
1192,3,,,,,,,,,,,,,,,,,,,,,,,,,,,,,,,,,,,,
1193,2,,,,,,,,,,,,,,,,,,,,,,,,,,,,,,,,,,,,
1194,13,,,,,,,,,,,,,,,,,,,,,,,,,,,,,,,,,,,,
1195,3,,,,,,,,,,,,,,,,,,,,,,,,,,,,,,,,,,,,
1196,3,,,,,,,,,,,,,,,,,,,,,,,,,,,,,,,,,,,,
1197,13,,,,,,,,,,,,,,,,,,,,,,,,,,,,,,,,,,,,
1198,3,,,,,,,,,,,,,,,,,,,,,,,,,,,,,,,,,,,,
1199,2,,,,,,,,,,,,,,,,,,,,,,,,,,,,,,,,,,,,
1200,13,,,,,,,,,,,,,,,,,,,,,,,,,,,,,,,,,,,,
1201,7,,,,,,,,,,,,,,,,,,,,,,,,,,,,,,,,,,,,
1202,3,,,,,,,,,,,,,,,,,,,,,,,,,,,,,,,,,,,,
1203,2,,,,,,,,,,,,,,,,,,,,,,,,,,,,,,,,,,,,
1204,3,,,,,,,,,,,,,,,,,,,,,,,,,,,,,,,,,,,,
1205,2,,,,,,,,,,,,,,,,,,,,,,,,,,,,,,,,,,,,
1206,7,,,,,,,,,,,,,,,,,,,,,,,,,,,,,,,,,,,,
1207,2,,,,,,,,,,,,,,,,,,,,,,,,,,,,,,,,,,,,
1208,3,,,,,,,,,,,,,,,,,,,,,,,,,,,,,,,,,,,,
1209,5,,,,,,,,,,,,,,,,,,,,,,,,,,,,,,,,,,,,
1210,17,,,,,,,,,,,,,,,,,,,,,,,,,,,,,,,,,,,,
1211,2,,,,,,,,,,,,,,,,,,,,,,,,,,,,,,,,,,,,
1212,7,,,,,,,,,,,,,,,,,,,,,,,,,,,,,,,,,,,,
1213,2,,,,,,,,,,,,,,,,,,,,,,,,,,,,,,,,,,,,
1214,3,,,,,,,,,,,,,,,,,,,,,,,,,,,,,,,,,,,,
1215,11,,,,,,,,,,,,,,,,,,,,,,,,,,,,,,,,,,,,
1216,7,,,,,,,,,,,,,,,,,,,,,,,,,,,,,,,,,,,,
1217,2,,,,,,,,,,,,,,,,,,,,,,,,,,,,,,,,,,,,
1218,13,,,,,,,,,,,,,,,,,,,,,,,,,,,,,,,,,,,,
1219,2,,,,,,,,,,,,,,,,,,,,,,,,,,,,,,,,,,,,
1220,3,,,,,,,,,,,,,,,,,,,,,,,,,,,,,,,,,,,,
1221,7,,,,,,,,,,,,,,,,,,,,,,,,,,,,,,,,,,,,
1222,5,,,,,,,,,,,,,,,,,,,,,,,,,,,,,,,,,,,,
1223,3,,,,,,,,,,,,,,,,,,,,,,,,,,,,,,,,,,,,
1224,7,,,,,,,,,,,,,,,,,,,,,,,,,,,,,,,,,,,,
1225,3,,,,,,,,,,,,,,,,,,,,,,,,,,,,,,,,,,,,
1226,5,,,,,,,,,,,,,,,,,,,,,,,,,,,,,,,,,,,,
1227,5,,,,,,,,,,,,,,,,,,,,,,,,,,,,,,,,,,,,
1228,3,,,,,,,,,,,,,,,,,,,,,,,,,,,,,,,,,,,,
1229,2,,,,,,,,,,,,,,,,,,,,,,,,,,,,,,,,,,,,
1230,7,,,,,,,,,,,,,,,,,,,,,,,,,,,,,,,,,,,,
1231,2,,,,,,,,,,,,,,,,,,,,,,,,,,,,,,,,,,,,
1232,7,,,,,,,,,,,,,,,,,,,,,,,,,,,,,,,,,,,,
1233,5,,,,,,,,,,,,,,,,,,,,,,,,,,,,,,,,,,,,
1234,13,,,,,,,,,,,,,,,,,,,,,,,,,,,,,,,,,,,,
1235,2,,,,,,,,,,,,,,,,,,,,,,,,,,,,,,,,,,,,
1236,7,,,,,,,,,,,,,,,,,,,,,,,,,,,,,,,,,,,,
1237,2,,,,,,,,,,,,,,,,,,,,,,,,,,,,,,,,,,,,
1238,5,,,,,,,,,,,,,,,,,,,,,,,,,,,,,,,,,,,,
1239,2,,,,,,,,,,,,,,,,,,,,,,,,,,,,,,,,,,,,
1240,7,,,,,,,,,,,,,,,,,,,,,,,,,,,,,,,,,,,,
1241,2,,,,,,,,,,,,,,,,,,,,,,,,,,,,,,,,,,,,
1242,7,,,,,,,,,,,,,,,,,,,,,,,,,,,,,,,,,,,,
1243,2,,,,,,,,,,,,,,,,,,,,,,,,,,,,,,,,,,,,
1244,3,,,,,,,,,,,,,,,,,,,,,,,,,,,,,,,,,,,,
1245,7,,,,,,,,,,,,,,,,,,,,,,,,,,,,,,,,,,,,
1246,5,,,,,,,,,,,,,,,,,,,,,,,,,,,,,,,,,,,,
1247,2,,,,,,,,,,,,,,,,,,,,,,,,,,,,,,,,,,,,
1248,7,,,,,,,,,,,,,,,,,,,,,,,,,,,,,,,,,,,,
1249,2,,,,,,,,,,,,,,,,,,,,,,,,,,,,,,,,,,,,
1250,7,,,,,,,,,,,,,,,,,,,,,,,,,,,,,,,,,,,,
1251,5,,,,,,,,,,,,,,,,,,,,,,,,,,,,,,,,,,,,
1252,3,,,,,,,,,,,,,,,,,,,,,,,,,,,,,,,,,,,,
1253,2,,,,,,,,,,,,,,,,,,,,,,,,,,,,,,,,,,,,
1254,11,,,,,,,,,,,,,,,,,,,,,,,,,,,,,,,,,,,,
1255,3,,,,,,,,,,,,,,,,,,,,,,,,,,,,,,,,,,,,
1256,3,,,,,,,,,,,,,,,,,,,,,,,,,,,,,,,,,,,,
1257,5,,,,,,,,,,,,,,,,,,,,,,,,,,,,,,,,,,,,
1258,5,,,,,,,,,,,,,,,,,,,,,,,,,,,,,,,,,,,,
1259,2,,,,,,,,,,,,,,,,,,,,,,,,,,,,,,,,,,,,
1260,11,,,,,,,,,,,,,,,,,,,,,,,,,,,,,,,,,,,,
1261,2,,,,,,,,,,,,,,,,,,,,,,,,,,,,,,,,,,,,
1262,3,,,,,,,,,,,,,,,,,,,,,,,,,,,,,,,,,,,,
1263,5,,,,,,,,,,,,,,,,,,,,,,,,,,,,,,,,,,,,
1264,17,,,,,,,,,,,,,,,,,,,,,,,,,,,,,,,,,,,,
1265,2,,,,,,,,,,,,,,,,,,,,,,,,,,,,,,,,,,,,
1266,7,,,,,,,,,,,,,,,,,,,,,,,,,,,,,,,,,,,,
1267,2,,,,,,,,,,,,,,,,,,,,,,,,,,,,,,,,,,,,
1268,3,,,,,,,,,,,,,,,,,,,,,,,,,,,,,,,,,,,,
1269,7,,,,,,,,,,,,,,,,,,,,,,,,,,,,,,,,,,,,
1270,7,,,,,,,,,,,,,,,,,,,,,,,,,,,,,,,,,,,,
1271,2,,,,,,,,,,,,,,,,,,,,,,,,,,,,,,,,,,,,
1272,5,,,,,,,,,,,,,,,,,,,,,,,,,,,,,,,,,,,,
1273,3,,,,,,,,,,,,,,,,,,,,,,,,,,,,,,,,,,,,
1274,13,,,,,,,,,,,,,,,,,,,,,,,,,,,,,,,,,,,,
1275,7,,,,,,,,,,,,,,,,,,,,,,,,,,,,,,,,,,,,
1276,5,,,,,,,,,,,,,,,,,,,,,,,,,,,,,,,,,,,,
1277,2,,,,,,,,,,,,,,,,,,,,,,,,,,,,,,,,,,,,
1278,7,,,,,,,,,,,,,,,,,,,,,,,,,,,,,,,,,,,,
1279,2,,,,,,,,,,,,,,,,,,,,,,,,,,,,,,,,,,,,
1280,7,,,,,,,,,,,,,,,,,,,,,,,,,,,,,,,,,,,,
1281,3,,,,,,,,,,,,,,,,,,,,,,,,,,,,,,,,,,,,
1282,3,,,,,,,,,,,,,,,,,,,,,,,,,,,,,,,,,,,,
1283,2,,,,,,,,,,,,,,,,,,,,,,,,,,,,,,,,,,,,
1284,7,,,,,,,,,,,,,,,,,,,,,,,,,,,,,,,,,,,,
1285,2,,,,,,,,,,,,,,,,,,,,,,,,,,,,,,,,,,,,
1286,3,,,,,,,,,,,,,,,,,,,,,,,,,,,,,,,,,,,,
1287,5,,,,,,,,,,,,,,,,,,,,,,,,,,,,,,,,,,,,
1288,5,,,,,,,,,,,,,,,,,,,,,,,,,,,,,,,,,,,,
1289,2,,,,,,,,,,,,,,,,,,,,,,,,,,,,,,,,,,,,
1290,11,,,,,,,,,,,,,,,,,,,,,,,,,,,,,,,,,,,,
1291,2,,,,,,,,,,,,,,,,,,,,,,,,,,,,,,,,,,,,
1292,3,,,,,,,,,,,,,,,,,,,,,,,,,,,,,,,,,,,,
1293,2,,,,,,,,,,,,,,,,,,,,,,,,,,,,,,,,,,,,
1294,3,,,,,,,,,,,,,,,,,,,,,,,,,,,,,,,,,,,,
1295,2,,,,,,,,,,,,,,,,,,,,,,,,,,,,,,,,,,,,
1296,11,,,,,,,,,,,,,,,,,,,,,,,,,,,,,,,,,,,,
1297,2,,,,,,,,,,,,,,,,,,,,,,,,,,,,,,,,,,,,
1298,5,,,,,,,,,,,,,,,,,,,,,,,,,,,,,,,,,,,,
1299,5,,,,,,,,,,,,,,,,,,,,,,,,,,,,,,,,,,,,
1300,7,,,,,,,,,,,,,,,,,,,,,,,,,,,,,,,,,,,,
1301,2,,,,,,,,,,,,,,,,,,,,,,,,,,,,,,,,,,,,
1302,11,,,,,,,,,,,,,,,,,,,,,,,,,,,,,,,,,,,,
1303,2,,,,,,,,,,,,,,,,,,,,,,,,,,,,,,,,,,,,
1304,3,,,,,,,,,,,,,,,,,,,,,,,,,,,,,,,,,,,,
1305,7,,,,,,,,,,,,,,,,,,,,,,,,,,,,,,,,,,,,
1306,3,,,,,,,,,,,,,,,,,,,,,,,,,,,,,,,,,,,,
1307,2,,,,,,,,,,,,,,,,,,,,,,,,,,,,,,,,,,,,
1308,11,,,,,,,,,,,,,,,,,,,,,,,,,,,,,,,,,,,,
1309,2,,,,,,,,,,,,,,,,,,,,,,,,,,,,,,,,,,,,
1310,3,,,,,,,,,,,,,,,,,,,,,,,,,,,,,,,,,,,,
1311,5,,,,,,,,,,,,,,,,,,,,,,,,,,,,,,,,,,,,
1312,3,,,,,,,,,,,,,,,,,,,,,,,,,,,,,,,,,,,,
1313,2,,,,,,,,,,,,,,,,,,,,,,,,,,,,,,,,,,,,
1314,7,,,,,,,,,,,,,,,,,,,,,,,,,,,,,,,,,,,,
1315,11,,,,,,,,,,,,,,,,,,,,,,,,,,,,,,,,,,,,
1316,3,,,,,,,,,,,,,,,,,,,,,,,,,,,,,,,,,,,,
1317,2,,,,,,,,,,,,,,,,,,,,,,,,,,,,,,,,,,,,
1318,3,,,,,,,,,,,,,,,,,,,,,,,,,,,,,,,,,,,,
1319,3,,,,,,,,,,,,,,,,,,,,,,,,,,,,,,,,,,,,
1320,13,,,,,,,,,,,,,,,,,,,,,,,,,,,,,,,,,,,,
1321,5,,,,,,,,,,,,,,,,,,,,,,,,,,,,,,,,,,,,
1322,3,,,,,,,,,,,,,,,,,,,,,,,,,,,,,,,,,,,,
1323,13,,,,,,,,,,,,,,,,,,,,,,,,,,,,,,,,,,,,
1324,3,,,,,,,,,,,,,,,,,,,,,,,,,,,,,,,,,,,,
1325,7,,,,,,,,,,,,,,,,,,,,,,,,,,,,,,,,,,,,
1326,5,,,,,,,,,,,,,,,,,,,,,,,,,,,,,,,,,,,,
1327,2,,,,,,,,,,,,,,,,,,,,,,,,,,,,,,,,,,,,
1328,7,,,,,,,,,,,,,,,,,,,,,,,,,,,,,,,,,,,,
1329,7,,,,,,,,,,,,,,,,,,,,,,,,,,,,,,,,,,,,
1330,11,,,,,,,,,,,,,,,,,,,,,,,,,,,,,,,,,,,,
1331,3,,,,,,,,,,,,,,,,,,,,,,,,,,,,,,,,,,,,
1332,7,,,,,,,,,,,,,,,,,,,,,,,,,,,,,,,,,,,,
1333,2,,,,,,,,,,,,,,,,,,,,,,,,,,,,,,,,,,,,
1334,5,,,,,,,,,,,,,,,,,,,,,,,,,,,,,,,,,,,,
1335,2,,,,,,,,,,,,,,,,,,,,,,,,,,,,,,,,,,,,
1336,3,,,,,,,,,,,,,,,,,,,,,,,,,,,,,,,,,,,,
1337,2,,,,,,,,,,,,,,,,,,,,,,,,,,,,,,,,,,,,
1338,5,,,,,,,,,,,,,,,,,,,,,,,,,,,,,,,,,,,,
1339,3,,,,,,,,,,,,,,,,,,,,,,,,,,,,,,,,,,,,
1340,7,,,,,,,,,,,,,,,,,,,,,,,,,,,,,,,,,,,,
1341,5,,,,,,,,,,,,,,,,,,,,,,,,,,,,,,,,,,,,
1342,5,,,,,,,,,,,,,,,,,,,,,,,,,,,,,,,,,,,,
1343,2,,,,,,,,,,,,,,,,,,,,,,,,,,,,,,,,,,,,
1344,13,,,,,,,,,,,,,,,,,,,,,,,,,,,,,,,,,,,,
1345,2,,,,,,,,,,,,,,,,,,,,,,,,,,,,,,,,,,,,
1346,3,,,,,,,,,,,,,,,,,,,,,,,,,,,,,,,,,,,,
1347,2,,,,,,,,,,,,,,,,,,,,,,,,,,,,,,,,,,,,
1348,3,,,,,,,,,,,,,,,,,,,,,,,,,,,,,,,,,,,,
1349,7,,,,,,,,,,,,,,,,,,,,,,,,,,,,,,,,,,,,
1350,17,,,,,,,,,,,,,,,,,,,,,,,,,,,,,,,,,,,,
1351,5,,,,,,,,,,,,,,,,,,,,,,,,,,,,,,,,,,,,
1352,5,,,,,,,,,,,,,,,,,,,,,,,,,,,,,,,,,,,,
1353,5,,,,,,,,,,,,,,,,,,,,,,,,,,,,,,,,,,,,
1354,3,,,,,,,,,,,,,,,,,,,,,,,,,,,,,,,,,,,,
1355,3,,,,,,,,,,,,,,,,,,,,,,,,,,,,,,,,,,,,
1356,13,,,,,,,,,,,,,,,,,,,,,,,,,,,,,,,,,,,,
1357,2,,,,,,,,,,,,,,,,,,,,,,,,,,,,,,,,,,,,
1358,3,,,,,,,,,,,,,,,,,,,,,,,,,,,,,,,,,,,,
1359,2,,,,,,,,,,,,,,,,,,,,,,,,,,,,,,,,,,,,
1360,7,,,,,,,,,,,,,,,,,,,,,,,,,,,,,,,,,,,,
1361,5,,,,,,,,,,,,,,,,,,,,,,,,,,,,,,,,,,,,
1362,7,,,,,,,,,,,,,,,,,,,,,,,,,,,,,,,,,,,,
1363,3,,,,,,,,,,,,,,,,,,,,,,,,,,,,,,,,,,,,
1364,5,,,,,,,,,,,,,,,,,,,,,,,,,,,,,,,,,,,,
1365,7,,,,,,,,,,,,,,,,,,,,,,,,,,,,,,,,,,,,
1366,3,,,,,,,,,,,,,,,,,,,,,,,,,,,,,,,,,,,,
1367,2,,,,,,,,,,,,,,,,,,,,,,,,,,,,,,,,,,,,
1368,11,,,,,,,,,,,,,,,,,,,,,,,,,,,,,,,,,,,,
1369,3,,,,,,,,,,,,,,,,,,,,,,,,,,,,,,,,,,,,
1370,13,,,,,,,,,,,,,,,,,,,,,,,,,,,,,,,,,,,,
1371,2,,,,,,,,,,,,,,,,,,,,,,,,,,,,,,,,,,,,
1372,5,,,,,,,,,,,,,,,,,,,,,,,,,,,,,,,,,,,,
1373,2,,,,,,,,,,,,,,,,,,,,,,,,,,,,,,,,,,,,
1374,5,,,,,,,,,,,,,,,,,,,,,,,,,,,,,,,,,,,,
1375,2,,,,,,,,,,,,,,,,,,,,,,,,,,,,,,,,,,,,
1376,3,,,,,,,,,,,,,,,,,,,,,,,,,,,,,,,,,,,,
1377,5,,,,,,,,,,,,,,,,,,,,,,,,,,,,,,,,,,,,
1378,7,,,,,,,,,,,,,,,,,,,,,,,,,,,,,,,,,,,,
1379,3,,,,,,,,,,,,,,,,,,,,,,,,,,,,,,,,,,,,
1380,11,,,,,,,,,,,,,,,,,,,,,,,,,,,,,,,,,,,,
1381,2,,,,,,,,,,,,,,,,,,,,,,,,,,,,,,,,,,,,
1382,3,,,,,,,,,,,,,,,,,,,,,,,,,,,,,,,,,,,,
1383,2,,,,,,,,,,,,,,,,,,,,,,,,,,,,,,,,,,,,
1384,3,,,,,,,,,,,,,,,,,,,,,,,,,,,,,,,,,,,,
1385,3,,,,,,,,,,,,,,,,,,,,,,,,,,,,,,,,,,,,
1386,13,,,,,,,,,,,,,,,,,,,,,,,,,,,,,,,,,,,,
1387,2,,,,,,,,,,,,,,,,,,,,,,,,,,,,,,,,,,,,
1388,3,,,,,,,,,,,,,,,,,,,,,,,,,,,,,,,,,,,,
1389,5,,,,,,,,,,,,,,,,,,,,,,,,,,,,,,,,,,,,
1390,3,,,,,,,,,,,,,,,,,,,,,,,,,,,,,,,,,,,,
1391,3,,,,,,,,,,,,,,,,,,,,,,,,,,,,,,,,,,,,
1392,7,,,,,,,,,,,,,,,,,,,,,,,,,,,,,,,,,,,,
1393,2,,,,,,,,,,,,,,,,,,,,,,,,,,,,,,,,,,,,
1394,5,,,,,,,,,,,,,,,,,,,,,,,,,,,,,,,,,,,,
1395,5,,,,,,,,,,,,,,,,,,,,,,,,,,,,,,,,,,,,
1396,3,,,,,,,,,,,,,,,,,,,,,,,,,,,,,,,,,,,,
1397,2,,,,,,,,,,,,,,,,,,,,,,,,,,,,,,,,,,,,
1398,5,,,,,,,,,,,,,,,,,,,,,,,,,,,,,,,,,,,,
1399,2,,,,,,,,,,,,,,,,,,,,,,,,,,,,,,,,,,,,
1400,13,,,,,,,,,,,,,,,,,,,,,,,,,,,,,,,,,,,,
1401,2,,,,,,,,,,,,,,,,,,,,,,,,,,,,,,,,,,,,
1402,3,,,,,,,,,,,,,,,,,,,,,,,,,,,,,,,,,,,,
1403,2,,,,,,,,,,,,,,,,,,,,,,,,,,,,,,,,,,,,
1404,11,,,,,,,,,,,,,,,,,,,,,,,,,,,,,,,,,,,,
1405,3,,,,,,,,,,,,,,,,,,,,,,,,,,,,,,,,,,,,
1406,5,,,,,,,,,,,,,,,,,,,,,,,,,,,,,,,,,,,,
1407,5,,,,,,,,,,,,,,,,,,,,,,,,,,,,,,,,,,,,
1408,7,,,,,,,,,,,,,,,,,,,,,,,,,,,,,,,,,,,,
1409,2,,,,,,,,,,,,,,,,,,,,,,,,,,,,,,,,,,,,
1410,7,,,,,,,,,,,,,,,,,,,,,,,,,,,,,,,,,,,,
1411,2,,,,,,,,,,,,,,,,,,,,,,,,,,,,,,,,,,,,
1412,3,,,,,,,,,,,,,,,,,,,,,,,,,,,,,,,,,,,,
1413,2,,,,,,,,,,,,,,,,,,,,,,,,,,,,,,,,,,,,
1414,3,,,,,,,,,,,,,,,,,,,,,,,,,,,,,,,,,,,,
1415,2,,,,,,,,,,,,,,,,,,,,,,,,,,,,,,,,,,,,
1416,11,,,,,,,,,,,,,,,,,,,,,,,,,,,,,,,,,,,,
1417,2,,,,,,,,,,,,,,,,,,,,,,,,,,,,,,,,,,,,
1418,3,,,,,,,,,,,,,,,,,,,,,,,,,,,,,,,,,,,,
1419,2,,,,,,,,,,,,,,,,,,,,,,,,,,,,,,,,,,,,
1420,7,,,,,,,,,,,,,,,,,,,,,,,,,,,,,,,,,,,,
1421,5,,,,,,,,,,,,,,,,,,,,,,,,,,,,,,,,,,,,
1422,13,,,,,,,,,,,,,,,,,,,,,,,,,,,,,,,,,,,,
1423,2,,,,,,,,,,,,,,,,,,,,,,,,,,,,,,,,,,,,
1424,7,,,,,,,,,,,,,,,,,,,,,,,,,,,,,,,,,,,,
1425,11,,,,,,,,,,,,,,,,,,,,,,,,,,,,,,,,,,,,
1426,5,,,,,,,,,,,,,,,,,,,,,,,,,,,,,,,,,,,,
1427,2,,,,,,,,,,,,,,,,,,,,,,,,,,,,,,,,,,,,
1428,5,,,,,,,,,,,,,,,,,,,,,,,,,,,,,,,,,,,,
1429,2,,,,,,,,,,,,,,,,,,,,,,,,,,,,,,,,,,,,
1430,5,,,,,,,,,,,,,,,,,,,,,,,,,,,,,,,,,,,,
1431,5,,,,,,,,,,,,,,,,,,,,,,,,,,,,,,,,,,,,
1432,3,,,,,,,,,,,,,,,,,,,,,,,,,,,,,,,,,,,,
1433,2,,,,,,,,,,,,,,,,,,,,,,,,,,,,,,,,,,,,
1434,7,,,,,,,,,,,,,,,,,,,,,,,,,,,,,,,,,,,,
1435,3,,,,,,,,,,,,,,,,,,,,,,,,,,,,,,,,,,,,
1436,3,,,,,,,,,,,,,,,,,,,,,,,,,,,,,,,,,,,,
1437,5,,,,,,,,,,,,,,,,,,,,,,,,,,,,,,,,,,,,
1438,3,,,,,,,,,,,,,,,,,,,,,,,,,,,,,,,,,,,,
1439,2,,,,,,,,,,,,,,,,,,,,,,,,,,,,,,,,,,,,
1440,19,,,,,,,,,,,,,,,,,,,,,,,,,,,,,,,,,,,,
1441,2,,,,,,,,,,,,,,,,,,,,,,,,,,,,,,,,,,,,
1442,5,,,,,,,,,,,,,,,,,,,,,,,,,,,,,,,,,,,,
1443,5,,,,,,,,,,,,,,,,,,,,,,,,,,,,,,,,,,,,
1444,5,,,,,,,,,,,,,,,,,,,,,,,,,,,,,,,,,,,,
1445,3,,,,,,,,,,,,,,,,,,,,,,,,,,,,,,,,,,,,
1446,7,,,,,,,,,,,,,,,,,,,,,,,,,,,,,,,,,,,,
1447,2,,,,,,,,,,,,,,,,,,,,,,,,,,,,,,,,,,,,
1448,3,,,,,,,,,,,,,,,,,,,,,,,,,,,,,,,,,,,,
1449,5,,,,,,,,,,,,,,,,,,,,,,,,,,,,,,,,,,,,
1450,7,,,,,,,,,,,,,,,,,,,,,,,,,,,,,,,,,,,,
1451,2,,,,,,,,,,,,,,,,,,,,,,,,,,,,,,,,,,,,
1452,7,,,,,,,,,,,,,,,,,,,,,,,,,,,,,,,,,,,,
1453,2,,,,,,,,,,,,,,,,,,,,,,,,,,,,,,,,,,,,
1454,3,,,,,,,,,,,,,,,,,,,,,,,,,,,,,,,,,,,,
1455,5,,,,,,,,,,,,,,,,,,,,,,,,,,,,,,,,,,,,
1456,7,,,,,,,,,,,,,,,,,,,,,,,,,,,,,,,,,,,,
1457,5,,,,,,,,,,,,,,,,,,,,,,,,,,,,,,,,,,,,
1458,5,,,,,,,,,,,,,,,,,,,,,,,,,,,,,,,,,,,,
1459,2,,,,,,,,,,,,,,,,,,,,,,,,,,,,,,,,,,,,
1460,3,,,,,,,,,,,,,,,,,,,,,,,,,,,,,,,,,,,,
1461,2,,,,,,,,,,,,,,,,,,,,,,,,,,,,,,,,,,,,
1462,5,,,,,,,,,,,,,,,,,,,,,,,,,,,,,,,,,,,,
1463,2,,,,,,,,,,,,,,,,,,,,,,,,,,,,,,,,,,,,
1464,7,,,,,,,,,,,,,,,,,,,,,,,,,,,,,,,,,,,,
1465,2,,,,,,,,,,,,,,,,,,,,,,,,,,,,,,,,,,,,
1466,3,,,,,,,,,,,,,,,,,,,,,,,,,,,,,,,,,,,,
1467,5,,,,,,,,,,,,,,,,,,,,,,,,,,,,,,,,,,,,
1468,3,,,,,,,,,,,,,,,,,,,,,,,,,,,,,,,,,,,,
1469,2,,,,,,,,,,,,,,,,,,,,,,,,,,,,,,,,,,,,
1470,11,,,,,,,,,,,,,,,,,,,,,,,,,,,,,,,,,,,,
1471,2,,,,,,,,,,,,,,,,,,,,,,,,,,,,,,,,,,,,
1472,7,,,,,,,,,,,,,,,,,,,,,,,,,,,,,,,,,,,,
1473,2,,,,,,,,,,,,,,,,,,,,,,,,,,,,,,,,,,,,
1474,3,,,,,,,,,,,,,,,,,,,,,,,,,,,,,,,,,,,,
1475,2,,,,,,,,,,,,,,,,,,,,,,,,,,,,,,,,,,,,
1476,5,,,,,,,,,,,,,,,,,,,,,,,,,,,,,,,,,,,,
1477,2,,,,,,,,,,,,,,,,,,,,,,,,,,,,,,,,,,,,
1478,3,,,,,,,,,,,,,,,,,,,,,,,,,,,,,,,,,,,,
1479,7,,,,,,,,,,,,,,,,,,,,,,,,,,,,,,,,,,,,
1480,3,,,,,,,,,,,,,,,,,,,,,,,,,,,,,,,,,,,,
1481,2,,,,,,,,,,,,,,,,,,,,,,,,,,,,,,,,,,,,
1482,11,,,,,,,,,,,,,,,,,,,,,,,,,,,,,,,,,,,,
1483,2,,,,,,,,,,,,,,,,,,,,,,,,,,,,,,,,,,,,
1484,5,,,,,,,,,,,,,,,,,,,,,,,,,,,,,,,,,,,,
1485,7,,,,,,,,,,,,,,,,,,,,,,,,,,,,,,,,,,,,
1486,3,,,,,,,,,,,,,,,,,,,,,,,,,,,,,,,,,,,,
1487,2,,,,,,,,,,,,,,,,,,,,,,,,,,,,,,,,,,,,
1488,7,,,,,,,,,,,,,,,,,,,,,,,,,,,,,,,,,,,,
1489,2,,,,,,,,,,,,,,,,,,,,,,,,,,,,,,,,,,,,
1490,3,,,,,,,,,,,,,,,,,,,,,,,,,,,,,,,,,,,,
1491,2,,,,,,,,,,,,,,,,,,,,,,,,,,,,,,,,,,,,
1492,3,,,,,,,,,,,,,,,,,,,,,,,,,,,,,,,,,,,,
1493,2,,,,,,,,,,,,,,,,,,,,,,,,,,,,,,,,,,,,
1494,5,,,,,,,,,,,,,,,,,,,,,,,,,,,,,,,,,,,,
1495,3,,,,,,,,,,,,,,,,,,,,,,,,,,,,,,,,,,,,
1496,7,,,,,,,,,,,,,,,,,,,,,,,,,,,,,,,,,,,,
1497,2,,,,,,,,,,,,,,,,,,,,,,,,,,,,,,,,,,,,
1498,5,,,,,,,,,,,,,,,,,,,,,,,,,,,,,,,,,,,,
1499,2,,,,,,,,,,,,,,,,,,,,,,,,,,,,,,,,,,,,
1500,11,,,,,,,,,,,,,,,,,,,,,,,,,,,,,,,,,,,,
1501,2,,,,,,,,,,,,,,,,,,,,,,,,,,,,,,,,,,,,
1502,3,,,,,,,,,,,,,,,,,,,,,,,,,,,,,,,,,,,,
1503,2,,,,,,,,,,,,,,,,,,,,,,,,,,,,,,,,,,,,
1504,,,,,,,,,,,,,,,,,,,,,,,,,,,,,,,,,,,,,
1505,,,,,,,,,,,,,,,,,,,,,,,,,,,,,,,,,,,,,
1506,,,,,,,,,,,,,,,,,,,,,,,,,,,,,,,,,,,,,
1507,,,,,,,,,,,,,,,,,,,,,,,,,,,,,,,,,,,,,
1508,,,,,,,,,,,,,,,,,,,,,,,,,,,,,,,,,,,,,
1509,,,,,,,,,,,,,,,,,,,,,,,,,,,,,,,,,,,,,
1510,,,,,,,,,,,,,,,,,,,,,,,,,,,,,,,,,,,,,
1511,,,,,,,,,,,,,,,,,,,,,,,,,,,,,,,,,,,,,
1512,,,,,,,,,,,,,,,,,,,,,,,,,,,,,,,,,,,,,
1513,,,,,,,,,,,,,,,,,,,,,,,,,,,,,,,,,,,,,
1514,,,,,,,,,,,,,,,,,,,,,,,,,,,,,,,,,,,,,
1515,,,,,,,,,,,,,,,,,,,,,,,,,,,,,,,,,,,,,
1516,,,,,,,,,,,,,,,,,,,,,,,,,,,,,,,,,,,,,
1517,,,,,,,,,,,,,,,,,,,,,,,,,,,,,,,,,,,,,
1518,,,,,,,,,,,,,,,,,,,,,,,,,,,,,,,,,,,,,
1519,,,,,,,,,,,,,,,,,,,,,,,,,,,,,,,,,,,,,
1520,,,,,,,,,,,,,,,,,,,,,,,,,,,,,,,,,,,,,
1521,,,,,,,,,,,,,,,,,,,,,,,,,,,,,,,,,,,,,
1522,,,,,,,,,,,,,,,,,,,,,,,,,,,,,,,,,,,,,
1523,,,,,,,,,,,,,,,,,,,,,,,,,,,,,,,,,,,,,
1524,,,,,,,,,,,,,,,,,,,,,,,,,,,,,,,,,,,,,
1525,,,,,,,,,,,,,,,,,,,,,,,,,,,,,,,,,,,,,
1526,,,,,,,,,,,,,,,,,,,,,,,,,,,,,,,,,,,,,
1527,,,,,,,,,,,,,,,,,,,,,,,,,,,,,,,,,,,,,
1528,,,,,,,,,,,,,,,,,,,,,,,,,,,,,,,,,,,,,
1529,,,,,,,,,,,,,,,,,,,,,,,,,,,,,,,,,,,,,
1530,,,,,,,,,,,,,,,,,,,,,,,,,,,,,,,,,,,,,
1531,,,,,,,,,,,,,,,,,,,,,,,,,,,,,,,,,,,,,
1532,,,,,,,,,,,,,,,,,,,,,,,,,,,,,,,,,,,,,
1533,,,,,,,,,,,,,,,,,,,,,,,,,,,,,,,,,,,,,
1534,,,,,,,,,,,,,,,,,,,,,,,,,,,,,,,,,,,,,
1535,,,,,,,,,,,,,,,,,,,,,,,,,,,,,,,,,,,,,
1536,,,,,,,,,,,,,,,,,,,,,,,,,,,,,,,,,,,,,
1537,,,,,,,,,,,,,,,,,,,,,,,,,,,,,,,,,,,,,
1538,,,,,,,,,,,,,,,,,,,,,,,,,,,,,,,,,,,,,
1539,,,,,,,,,,,,,,,,,,,,,,,,,,,,,,,,,,,,,
1540,,,,,,,,,,,,,,,,,,,,,,,,,,,,,,,,,,,,,
1541,,,,,,,,,,,,,,,,,,,,,,,,,,,,,,,,,,,,,
1542,,,,,,,,,,,,,,,,,,,,,,,,,,,,,,,,,,,,,
1543,,,,,,,,,,,,,,,,,,,,,,,,,,,,,,,,,,,,,
1544,,,,,,,,,,,,,,,,,,,,,,,,,,,,,,,,,,,,,
1545,,,,,,,,,,,,,,,,,,,,,,,,,,,,,,,,,,,,,
1546,,,,,,,,,,,,,,,,,,,,,,,,,,,,,,,,,,,,,
1547,,,,,,,,,,,,,,,,,,,,,,,,,,,,,,,,,,,,,
1548,,,,,,,,,,,,,,,,,,,,,,,,,,,,,,,,,,,,,
1549,,,,,,,,,,,,,,,,,,,,,,,,,,,,,,,,,,,,,
1550,,,,,,,,,,,,,,,,,,,,,,,,,,,,,,,,,,,,,
1551,,,,,,,,,,,,,,,,,,,,,,,,,,,,,,,,,,,,,
1552,,,,,,,,,,,,,,,,,,,,,,,,,,,,,,,,,,,,,
1553,,,,,,,,,,,,,,,,,,,,,,,,,,,,,,,,,,,,,
1554,,,,,,,,,,,,,,,,,,,,,,,,,,,,,,,,,,,,,
1555,,,,,,,,,,,,,,,,,,,,,,,,,,,,,,,,,,,,,
1556,,,,,,,,,,,,,,,,,,,,,,,,,,,,,,,,,,,,,
1557,,,,,,,,,,,,,,,,,,,,,,,,,,,,,,,,,,,,,
1558,,,,,,,,,,,,,,,,,,,,,,,,,,,,,,,,,,,,,
1559,,,,,,,,,,,,,,,,,,,,,,,,,,,,,,,,,,,,,
1560,,,,,,,,,,,,,,,,,,,,,,,,,,,,,,,,,,,,,
1561,,,,,,,,,,,,,,,,,,,,,,,,,,,,,,,,,,,,,
1562,,,,,,,,,,,,,,,,,,,,,,,,,,,,,,,,,,,,,
1563,,,,,,,,,,,,,,,,,,,,,,,,,,,,,,,,,,,,,
1564,,,,,,,,,,,,,,,,,,,,,,,,,,,,,,,,,,,,,
1565,,,,,,,,,,,,,,,,,,,,,,,,,,,,,,,,,,,,,
1566,,,,,,,,,,,,,,,,,,,,,,,,,,,,,,,,,,,,,
1567,,,,,,,,,,,,,,,,,,,,,,,,,,,,,,,,,,,,,
1568,,,,,,,,,,,,,,,,,,,,,,,,,,,,,,,,,,,,,
1569,,,,,,,,,,,,,,,,,,,,,,,,,,,,,,,,,,,,,
1570,,,,,,,,,,,,,,,,,,,,,,,,,,,,,,,,,,,,,
1571,,,,,,,,,,,,,,,,,,,,,,,,,,,,,,,,,,,,,
1572,,,,,,,,,,,,,,,,,,,,,,,,,,,,,,,,,,,,,
1573,,,,,,,,,,,,,,,,,,,,,,,,,,,,,,,,,,,,,
1574,,,,,,,,,,,,,,,,,,,,,,,,,,,,,,,,,,,,,
1575,,,,,,,,,,,,,,,,,,,,,,,,,,,,,,,,,,,,,
1576,,,,,,,,,,,,,,,,,,,,,,,,,,,,,,,,,,,,,
1577,,,,,,,,,,,,,,,,,,,,,,,,,,,,,,,,,,,,,
1578,,,,,,,,,,,,,,,,,,,,,,,,,,,,,,,,,,,,,
1579,,,,,,,,,,,,,,,,,,,,,,,,,,,,,,,,,,,,,
1580,,,,,,,,,,,,,,,,,,,,,,,,,,,,,,,,,,,,,
1581,,,,,,,,,,,,,,,,,,,,,,,,,,,,,,,,,,,,,
1582,,,,,,,,,,,,,,,,,,,,,,,,,,,,,,,,,,,,,
1583,,,,,,,,,,,,,,,,,,,,,,,,,,,,,,,,,,,,,